<?xml version="1.0" standalone="no"?>
<!DOCTYPE svg PUBLIC "-//W3C//DTD SVG 1.1//EN" "http://www.w3.org/Graphics/SVG/1.1/DTD/svg11.dtd" >
<svg xmlns="http://www.w3.org/2000/svg">
<metadata>
This is a custom SVG webfont generated by Font Squirrel.
Copyright   : Copyright c 2011 by vernon adams All rights reserved
Designer    : vernon adams
Foundry     : vernon adams
</metadata>
<defs>
<font id="MetrophobicRegular" horiz-adv-x="1324" >
<font-face units-per-em="2048" ascent="1638" descent="-410" />
<missing-glyph horiz-adv-x="500" />
<glyph unicode="!" horiz-adv-x="496" d="M143 0v221h211v-221h-211zM167 1171v195h162v-195q-4 -101 -9 -206.5t-10.5 -212t-10.5 -212t-9 -205.5h-83q-5 100 -10 205.5t-10 212t-10 212t-10 206.5z" />
<glyph unicode="&#x22;" horiz-adv-x="793" d="M128 1452h197l-4 -192l-29 -308h-129l-31 308zM468 1452h195l-2 -192l-31 -308h-129l-31 308z" />
<glyph unicode="#" horiz-adv-x="949" d="M130 566l7 132h121l49 298h-159l6 131h176l52 284h138l-52 -284h118l52 284h139l-52 -284h99v-131h-121l-50 -298h154v-132h-175l-50 -279h-139l52 279h-120l-50 -279h-140l51 279h-106zM381 698h145l55 298h-145z" />
<glyph unicode="$" horiz-adv-x="1088" d="M104 1024q0 96 29 161.5t83 106t131 58.5t174 18q14 0 26.5 -0.5t25.5 -1.5l17 171h106l-18 -185q48 -9 88.5 -22t71 -25.5t51.5 -22.5t30 -14v-142q-8 6 -30.5 17.5t-55.5 25t-75.5 27.5t-91.5 24l-46 -475l118 -40q68 -23 118 -49.5t82.5 -65.5t48 -93.5t15.5 -133.5 q0 -84 -25 -151.5t-79.5 -114.5t-140.5 -72.5t-207 -25.5l-15 -155h-106l15 163q-56 9 -103.5 25.5t-84.5 34.5t-62.5 33.5t-36.5 22.5v145q9 -8 36.5 -25t68 -36.5t91 -37.5t104.5 -28l48 506l-159 55q-62 25 -107.5 54t-75.5 66.5t-44.5 86.5t-14.5 115zM250 1031 q0 -50 10 -83.5t33 -57.5t60 -43t91 -41l74 -26l43 454q-12 1 -23.5 1.5t-23.5 0.5q-65 0 -114.5 -9.5t-82.5 -32.5t-50 -62.5t-17 -100.5zM562 132q82 1 138 18t90.5 47t49 71.5t14.5 92.5q0 58 -12 96t-38 64t-67 44.5t-98 36.5l-31 10z" />
<glyph unicode="%" horiz-adv-x="1524" d="M71 1061q0 72 18 133t53.5 105t88.5 68.5t123 24.5q69 0 121.5 -24.5t88 -68t53 -104t17.5 -132.5t-17.5 -132.5t-53 -104.5t-87.5 -68.5t-121 -24.5q-70 0 -123 24t-89 67.5t-54 104t-18 132.5zM204 1069q0 -44 6.5 -86t23 -75t46 -53t74.5 -20q43 0 71.5 20t45.5 52.5 t23.5 72.5t6.5 81q0 42 -6.5 83t-23 73.5t-45 52.5t-72.5 20t-73 -20t-46 -52t-24 -71.5t-7 -77.5zM410 -28l576 1418l106 -41l-575 -1419zM888 370q0 72 18 132t53.5 103.5t88.5 68t123 24.5q68 0 120 -25t87.5 -69.5t53.5 -105t18 -132.5q0 -70 -18 -130t-53.5 -103.5 t-87.5 -68.5t-120 -25q-71 0 -124 24t-88 68t-53 104.5t-18 134.5zM1019 378q0 -44 6.5 -86.5t23.5 -76t46 -54t74 -20.5q44 0 73 20.5t46 53t23.5 72.5t6.5 80t-6.5 81t-23.5 73.5t-45.5 53t-72.5 20.5q-45 0 -74 -19.5t-46 -50.5t-24 -70t-7 -77z" />
<glyph unicode="&#x26;" horiz-adv-x="1449" d="M88 416q0 111 26.5 184t70.5 122.5t102.5 82t122.5 60.5q-32 36 -55 67t-38 61.5t-22 63.5t-7 74q0 168 93 254q94 87 286 87q97 0 169 -13t118 -55q22 -17 42 -53.5t36 -73.5q18 -44 34 -93l-133 -60q-16 40 -31 74q-13 29 -27.5 56.5t-26.5 38.5q-26 21 -70 29.5 t-109 9.5q-57 0 -101.5 -13t-71.5 -51q-18 -24 -27 -58.5t-9 -84.5q0 -49 20 -105t74 -109l498 -482q13 67 17.5 124t9.5 100l133 -31q-3 -38 -7 -77.5t-9 -77.5t-11.5 -73.5t-14.5 -63.5l252 -217l-85 -110q-7 8 -32 31q-22 19 -65 55.5t-119 98.5q-11 -42 -32.5 -72 t-42.5 -50q-25 -23 -53 -37q-29 -14 -80 -25q-44 -10 -115.5 -17.5t-177.5 -7.5q-72 0 -137.5 4.5t-122 16.5t-103 34t-80.5 58q-48 51 -68.5 131.5t-20.5 192.5zM270 438q0 -89 9.5 -151.5t44.5 -98.5q20 -20 49 -32.5t67.5 -19.5t85.5 -9.5t104 -2.5q86 0 141.5 4t88.5 9 q39 6 60 14q19 12 37 30q14 16 28.5 41.5t20.5 62.5l-519 480q-63 -23 -105 -48.5t-67 -62.5t-35 -89t-10 -127z" />
<glyph unicode="'" horiz-adv-x="455" d="M130 1452h195l-2 -192l-31 -308h-129l-31 308z" />
<glyph unicode="(" horiz-adv-x="586" d="M91 638q0 57 5.5 121t17 130t30 133t44.5 131q46 112 120 207t176 180l39 -116q-89 -103 -142 -210t-81 -209.5t-36.5 -196t-8.5 -170.5t8.5 -170.5t36.5 -196t81 -209.5t142 -210l-39 -116q-102 85 -176 180t-120 207q-26 64 -44.5 131t-30 133t-17 130t-5.5 121z" />
<glyph unicode=")" horiz-adv-x="584" d="M62 -143q89 103 142 208.5t81 206.5t36.5 193.5t8.5 169.5q0 76 -8.5 169t-36.5 194t-81 206.5t-142 208.5l38 117q102 -85 176 -180.5t120 -207.5q53 -128 75 -259.5t22 -247.5t-22 -247.5t-75 -259.5q-46 -112 -120 -207.5t-176 -180.5z" />
<glyph unicode="*" horiz-adv-x="982" d="M121 1204l65 119l263 -172l-21 296h133l-22 -296l258 172l65 -120l-287 -127l287 -131l-65 -120l-258 172l22 -296h-133l21 296l-263 -172l-64 112l296 139z" />
<glyph unicode="+" horiz-adv-x="942" d="M109 562v122h292v277h147v-277h286v-122h-286v-279h-147v279h-292z" />
<glyph unicode="," horiz-adv-x="474" d="M142 -174q10 12 24.5 29t28 38t23 45t9.5 51h-79v196h180v-191q0 -46 -16.5 -84t-39.5 -67t-47.5 -48.5t-39.5 -29.5z" />
<glyph unicode="-" horiz-adv-x="841" d="M141 474v131h559v-131h-559z" />
<glyph unicode="." horiz-adv-x="494" d="M141 0v221h211v-221h-211z" />
<glyph unicode="/" horiz-adv-x="711" d="M95 -153l396 1767l125 -23l-398 -1768z" />
<glyph unicode="0" horiz-adv-x="1207" d="M132 665q0 84 7 162.5t23.5 149t44 130t68.5 105.5q54 60 139.5 91t193.5 31q99 0 184 -29.5t142 -93.5q72 -82 106.5 -218t34.5 -327q0 -208 -37 -346.5t-108 -218.5q-60 -66 -145.5 -94t-179.5 -28q-96 0 -182 28t-144 93q-73 81 -110 221t-37 344zM294 661 q0 -71 2.5 -137.5t11.5 -126.5t26 -110.5t46 -87.5q33 -44 91.5 -66t131.5 -22q74 0 132.5 22t92.5 67q28 37 45 88t26 112t11.5 129.5t2.5 141.5q0 66 -2.5 129.5t-10.5 119.5t-23.5 104.5t-41.5 84.5q-33 46 -92.5 70t-135.5 24q-75 0 -135 -23t-94 -68 q-28 -37 -44.5 -86.5t-25.5 -108t-11.5 -123.5t-2.5 -133z" />
<glyph unicode="1" horiz-adv-x="670" d="M48 1100q24 13 52 30.5t64 43.5t82 64t107 93l126 -24v-1307h-151v1133q-39 -28 -69 -49t-57 -39t-54.5 -34.5t-60.5 -34.5z" />
<glyph unicode="2" horiz-adv-x="1065" d="M100 0q12 125 45.5 214t83.5 156.5t114.5 120.5t138.5 105q61 43 113.5 80t91.5 76t61 85.5t22 109.5q0 56 -9 101.5t-35 77.5q-28 35 -77.5 54t-113.5 19q-60 0 -118 -14t-100 -46q-40 -32 -59 -80.5t-14 -109.5l-111 37q-10 67 13.5 132.5t79.5 114.5q54 48 134.5 73.5 t179.5 25.5q102 0 183 -33t130 -91q43 -51 61.5 -115.5t18.5 -139.5q0 -91 -31 -157.5t-81.5 -118.5t-114 -94.5t-129.5 -84.5q-68 -45 -119.5 -84.5t-89 -80t-62.5 -86.5t-41 -104h679v-143h-844z" />
<glyph unicode="3" horiz-adv-x="1102" d="M112 275l125 47q0 -51 15 -92t43 -67q38 -35 93 -46.5t117 -11.5q77 0 135 18t91 59q29 35 38.5 85t9.5 110q0 61 -16 103.5t-44 70.5t-67.5 44t-85.5 24t-98 10t-106 2v126h114q57 0 108.5 11t90.5 36.5t62 67t23 103.5t-14 107t-46 74q-28 25 -69 37t-88 12 q-62 0 -115.5 -10t-94.5 -39q-31 -21 -53 -54t-33 -71l-121 39q11 62 47 111.5t86 81.5q31 20 66.5 33.5t72 22t73 12t70.5 3.5q80 0 154 -21t128 -59q64 -46 94.5 -115t30.5 -157q0 -69 -25 -120t-63 -86t-82.5 -55.5t-83.5 -28.5q50 -9 100 -32.5t89.5 -62.5t64.5 -93 t25 -124q0 -100 -34.5 -181.5t-106.5 -134.5q-60 -44 -144.5 -65t-184.5 -21q-42 0 -85 5.5t-83.5 17t-77.5 30t-66 44.5q-40 35 -61 86.5t-18 113.5z" />
<glyph unicode="4" horiz-adv-x="1037" d="M60 446l537 864l178 -20v-883h184v-128h-184v-280h-152v280h-549zM188 405h435v709z" />
<glyph unicode="5" horiz-adv-x="1098" d="M121 200l96 87q5 -11 13.5 -27.5t22 -34.5t32.5 -36.5t45 -34.5q36 -22 87.5 -34.5t114.5 -12.5q68 0 126.5 16.5t98.5 54.5q39 38 57 96.5t18 137.5q0 80 -15 138t-53 95q-35 35 -90.5 51t-127.5 16q-49 0 -92 -11.5t-78 -29.5t-60 -40t-38 -43l-132 37q4 49 8.5 111.5 t9.5 130.5t9.5 136t8.5 127.5t7 105t5 68.5h690v-143h-566l-31 -410q16 13 44.5 28.5t65 29t80.5 23t91 9.5q96 0 175 -23.5t134 -73.5q114 -104 114 -324q0 -225 -128 -339q-62 -55 -147.5 -80.5t-181.5 -25.5q-100 0 -177.5 22.5t-130.5 60.5q-43 31 -68 69t-37 73z" />
<glyph unicode="6" horiz-adv-x="1144" d="M129 599q0 88 6.5 162t18 134.5t25.5 108.5t29 84q35 85 80 136q37 36 87 65q42 24 103.5 44.5t140.5 20.5q64 0 116.5 -13t95 -32.5t77.5 -42t64 -40.5l-70 -112q-32 28 -73 50q-35 19 -86.5 34.5t-117.5 15.5q-60 0 -102.5 -15.5t-71.5 -33.5q-33 -22 -56 -49 q-26 -36 -47 -91q-18 -48 -33 -122.5t-15 -181.5q67 76 154.5 112t178.5 36q68 0 116.5 -11t79.5 -24q36 -16 60 -35q42 -34 75 -86q28 -45 51.5 -115t23.5 -170q0 -78 -18 -139.5t-39 -104.5q-25 -50 -56 -89q-31 -36 -79 -64q-41 -24 -104.5 -43.5t-152.5 -19.5 q-74 0 -129 14.5t-92 31.5q-43 20 -73 47q-47 41 -84 114q-16 31 -31 72t-26.5 93.5t-18.5 117t-7 141.5zM301 511q0 -105 14.5 -172.5t31.5 -107.5q20 -47 47 -70q18 -18 46 -31q24 -12 61 -21.5t91 -9.5q66 0 110.5 14.5t71.5 32.5q32 20 51 47q14 15 25 46q9 26 17 71 t8 117t-12 120t-26 77q-17 33 -38 52q-19 17 -46 31q-23 11 -58 21t-83 10q-51 0 -99 -16t-89 -45.5t-73 -71.5t-50 -94z" />
<glyph unicode="7" horiz-adv-x="894" d="M73 1170v137h760l5 -134q-98 -169 -172.5 -335t-126 -317.5t-79.5 -282.5t-33 -231h-166q7 94 29 195t54.5 204t73.5 205.5t85.5 200.5t91 188.5t90.5 169.5h-612z" />
<glyph unicode="8" horiz-adv-x="1137" d="M120 335q0 125 82 218t240 150q-53 27 -101.5 59.5t-85.5 72.5t-59.5 89t-22.5 111q0 81 27 144.5t87 104.5q51 35 125 50.5t163 15.5q85 0 158 -16t123 -51q59 -41 84.5 -102.5t25.5 -139.5q0 -62 -23 -111t-61.5 -89t-87 -72.5t-99.5 -59.5q321 -113 321 -373 q0 -194 -132 -286q-60 -42 -144.5 -62.5t-182.5 -20.5q-93 0 -175 20.5t-139 62.5q-64 47 -93.5 117.5t-29.5 167.5zM282 343q0 -69 15 -115.5t53 -75.5q38 -30 96 -43t121 -13t120 13.5t95 44.5q38 30 55 77t17 114q0 59 -22.5 104t-61.5 79.5t-91.5 60.5t-111.5 46 q-57 -21 -108.5 -47.5t-91 -62t-62.5 -80.5t-23 -102zM324 1030q0 -47 17.5 -85t49.5 -68.5t77 -54.5t101 -45q56 21 101 46t77 55.5t49.5 68t17.5 85.5q0 51 -13 89.5t-45 63.5t-82 34.5t-104 9.5q-56 0 -106 -10t-82 -36q-32 -25 -45 -63.5t-13 -89.5z" />
<glyph unicode="9" horiz-adv-x="1146" d="M105 894q0 85 17 146t37 103q24 48 55 82q33 36 82 64q42 24 106 44.5t152 20.5q76 0 132 -15t94 -32q44 -20 74 -46q45 -35 80 -105q15 -30 29.5 -70.5t26 -94t18.5 -120t7 -148.5q0 -95 -6.5 -172.5t-17.5 -139.5t-25 -109.5t-29 -83.5q-34 -84 -77 -126 q-39 -35 -89 -62q-44 -23 -105.5 -42.5t-140.5 -19.5q-64 0 -116.5 13t-95 32.5t-77.5 42t-64 40.5l70 112q32 -28 73 -50q35 -19 86.5 -34.5t117.5 -15.5q60 0 103.5 14.5t72.5 31.5q34 20 58 46q25 30 45 85q17 47 31.5 123t14.5 193q-67 -76 -154.5 -112t-178.5 -36 q-63 0 -109.5 10.5t-77.5 23.5q-36 15 -62 35q-45 33 -79 86q-15 22 -29 51t-25 64.5t-17.5 78t-6.5 92.5zM269 895q0 -70 11.5 -117t25.5 -76q17 -34 38 -54q20 -18 47 -32q23 -12 58 -22t83 -10q51 0 99 16t89 45.5t73 71.5t50 94q0 110 -13.5 178.5t-30.5 106.5 q-19 45 -43 65q-19 17 -48 31q-25 11 -63.5 21t-92.5 10q-66 0 -110.5 -16.5t-71.5 -36.5q-32 -23 -50 -52q-15 -16 -26 -46q-10 -26 -17.5 -68.5t-7.5 -108.5z" />
<glyph unicode=":" horiz-adv-x="494" d="M142 242v221h211v-221h-211zM142 711v221h211v-221h-211z" />
<glyph unicode=";" horiz-adv-x="494" d="M141 711v221h211v-221h-211zM156 105q10 12 24.5 29t28 38t23 45t9.5 51h-79v196h180v-191q0 -46 -16.5 -84t-39.5 -67t-47.5 -48.5t-39.5 -29.5z" />
<glyph unicode="&#x3c;" horiz-adv-x="1072" d="M64 561v66l823 499l78 -94l-727 -440l729 -438l-80 -95z" />
<glyph unicode="=" horiz-adv-x="1039" d="M153 446v111h733v-111h-733zM153 698v109h733v-109h-733z" />
<glyph unicode="&#x3e;" horiz-adv-x="1073" d="M106 154l729 438l-729 440l80 94l823 -499v-66l-823 -502z" />
<glyph unicode="?" horiz-adv-x="892" d="M68 1179q17 32 41 56.5t46 42.5q26 20 52 37q24 14 60 25q30 10 76 18t109 8q75 0 128.5 -16t88.5 -36q41 -23 69 -51q21 -26 38 -60q14 -29 26 -72t12 -99q0 -46 -14 -86t-37 -75t-53 -65.5t-61.5 -57t-62 -50.5t-55.5 -45q-26 -22 -40.5 -43.5t-21.5 -48.5t-8.5 -62 t-1.5 -85q0 -11 -0.5 -22t-0.5 -21v-22l-133 1q-3 36 -5 70q-2 29 -3 60.5t-1 53.5q0 67 25 114.5t62.5 84t81 67t81 64t62.5 75t25 100.5q0 35 -7.5 59t-15.5 40q-10 18 -22 30q-13 12 -36 22q-20 8 -51 15.5t-78 7.5t-78 -4.5t-50 -9.5q-22 -6 -35 -14q-22 -11 -44 -27 q-19 -14 -41.5 -34t-42.5 -47zM279 0v221h211v-221h-211z" />
<glyph unicode="@" horiz-adv-x="1753" d="M86 536q0 127 33.5 238.5t92.5 205.5t140 168t176.5 125.5t201 78.5t214.5 27q90 0 179.5 -18.5t170.5 -55t150.5 -91.5t120.5 -128.5t80 -165t29 -200.5q0 -112 -29.5 -213.5t-80.5 -178t-121 -122t-151 -45.5q-42 0 -81 15.5t-69 47.5t-48 81t-18 117 q-21 -62 -49 -111.5t-64 -84.5t-81.5 -54t-103.5 -19q-76 0 -134 29t-97.5 80.5t-59.5 123t-20 156.5q0 99 32.5 187.5t90.5 155t137.5 105t173.5 38.5q72 0 133.5 -25.5t109.5 -70.5q17 38 32.5 51t32.5 13q12 0 25.5 -1t24.5 -3q13 -2 27 -3l-80 -497q-5 -27 -3.5 -62.5 t12.5 -66.5t34.5 -52.5t63.5 -21.5q52 0 93 39t69 100t42.5 134.5t14.5 142.5q0 132 -51 231.5t-134.5 167t-191 101.5t-221.5 34q-89 0 -176 -22.5t-165 -65t-144.5 -103.5t-115 -137.5t-75.5 -167.5t-27 -193q0 -122 36 -229t112.5 -187.5t194 -127t281.5 -46.5 q92 0 175.5 20.5t155.5 46.5l55 -123q-91 -37 -193 -60t-214 -23q-87 0 -176 18t-172 55t-156 94.5t-127 137t-85.5 181.5t-31.5 229zM637 504q0 -43 12 -83.5t34.5 -71.5t55.5 -49.5t76 -18.5q48 0 86.5 26t68 69t51 99t35.5 116q7 32 16.5 78t18.5 88q11 49 21 101 q1 0 -19 6t-50 13.5t-64.5 13.5t-61.5 6q-77 0 -130.5 -33t-86.5 -87.5t-48 -125.5t-15 -147z" />
<glyph unicode="A" d="M18 0l544 1441h201l541 -1441h-176l-136 367h-662l-135 -367h-177zM378 502h565l-280 827z" />
<glyph unicode="B" horiz-adv-x="1353" d="M192 0v1441h416q60 0 111 -1t96 -3q91 -4 153 -26.5t104 -62.5q50 -48 70.5 -117.5t20.5 -158.5q0 -78 -18 -128.5t-46 -82.5q-19 -22 -41.5 -36.5t-45.5 -24.5t-45.5 -17t-42.5 -13q15 -3 33.5 -7t37 -9t36.5 -11t32 -12q28 -13 60 -31.5t59 -54t44.5 -92t17.5 -146.5 q0 -64 -10 -113.5t-26.5 -87.5t-36.5 -65t-39 -46q-20 -20 -50.5 -37t-73.5 -30t-99 -20.5t-128 -7.5h-589zM366 141h386q107 0 170.5 15.5t96.5 54.5q26 32 36.5 80t10.5 119q0 51 -5.5 87t-14.5 62t-21.5 43.5t-27.5 29.5q-29 25 -93.5 44.5t-176.5 19.5h-361v-555z M366 833h341q105 0 167.5 19t94.5 58q25 30 35 72t10 97q0 60 -8.5 99.5t-33.5 65.5q-32 32 -97.5 44t-179.5 12h-329v-467z" />
<glyph unicode="C" horiz-adv-x="1405" d="M118 699q0 130 16.5 228.5t41.5 169.5t53 118t51 74t64.5 59t101.5 59.5t139.5 46t178.5 18.5q97 0 171 -16t127 -38t85.5 -44t44.5 -34t28.5 -33t33 -52t31.5 -71t25 -89l-146 -75q-20 92 -51.5 150.5t-63.5 78.5q-8 5 -28.5 17t-55.5 24.5t-84.5 22t-113.5 9.5 q-72 0 -128 -11.5t-97.5 -28.5t-69.5 -36.5t-44 -34.5q-21 -20 -44 -58t-42 -98t-31.5 -144.5t-12.5 -196.5q0 -111 11.5 -193.5t28 -140.5t36 -93t34.5 -53q21 -24 54.5 -46.5t78.5 -39.5t100.5 -27.5t121.5 -10.5q67 0 120.5 10.5t93 25.5t65.5 31.5t38 28.5q6 6 17.5 21 t25 40.5t27.5 62t25 86.5l140 -79q-13 -58 -31 -101.5t-37 -74.5t-37 -50.5t-31 -29.5q-12 -10 -44 -30t-83.5 -40t-123.5 -35t-165 -15q-99 0 -177 17t-135.5 41.5t-95.5 51.5t-59 47q-36 34 -68 89.5t-56.5 129.5t-39 165.5t-14.5 196.5z" />
<glyph unicode="D" horiz-adv-x="1442" d="M192 0v1441h468q102 0 180 -16.5t136 -39.5t96 -48.5t60 -44.5q29 -26 63 -69.5t62.5 -111t47.5 -162t19 -222.5q0 -138 -19.5 -237.5t-49 -169.5t-64 -113t-63.5 -67q-21 -18 -59.5 -42t-95 -45.5t-133 -37t-174.5 -15.5h-474zM366 145h297q82 0 144 12t107 30t73.5 39 t44.5 40t35.5 52t36.5 87t29 132t12 186q0 104 -11 180.5t-27 130.5t-34.5 88t-33.5 53t-45 40.5t-77.5 39.5t-114.5 30t-157 12h-279v-1152z" />
<glyph unicode="E" horiz-adv-x="1164" d="M192 0v1441h860l-22 -142h-664v-475h610v-138h-610v-543h666l23 -143h-863z" />
<glyph unicode="F" horiz-adv-x="1076" d="M192 0v1441h829l-31 -146h-624v-476h548v-146h-548v-673h-174z" />
<glyph unicode="G" horiz-adv-x="1482" d="M114 692q0 139 20.5 243.5t51 180t65.5 124t64 75.5q24 22 63.5 49.5t97.5 51.5t134.5 40.5t173.5 16.5q88 0 158.5 -14.5t122.5 -34.5t85.5 -40.5t47.5 -31.5q7 -6 21.5 -20.5t32 -41t36.5 -64.5t34 -90l-130 -87q-11 41 -24.5 72.5t-26.5 53.5t-24 35t-17 18 q-12 10 -37 26.5t-64.5 32.5t-93.5 27.5t-124 11.5q-75 0 -132.5 -12t-100.5 -29t-71.5 -36.5t-44.5 -34.5q-23 -21 -47.5 -60.5t-44.5 -101.5t-33.5 -149.5t-13.5 -205.5q0 -110 13 -192.5t33.5 -141t44.5 -95t46 -55.5q16 -14 44 -32.5t70 -34.5t98.5 -27t130.5 -11 q84 0 146.5 13t109.5 34.5t81 48t60 53.5v307h-437v143h611v-707h-124l-29 118q-33 -30 -73 -57.5t-90.5 -49.5t-114.5 -35.5t-145 -14.5q-99 0 -177 17.5t-136.5 43.5t-99 55.5t-63.5 54.5q-24 25 -54.5 68.5t-58 111t-46.5 161.5t-19 219z" />
<glyph unicode="H" horiz-adv-x="1523" d="M192 0v1441h174v-624h791v624h174v-1441h-174v680h-791v-680h-174z" />
<glyph unicode="I" horiz-adv-x="696" d="M96 1441h509l-8 -101h-153v-1239h155l-6 -101h-490l-6 101h173v1239h-168z" />
<glyph unicode="J" horiz-adv-x="815" d="M43 139q0 8 0.5 20.5t2.5 26.5q1 15 3 33l142 30v-10q0 -8 0.5 -22.5t0.5 -43.5q0 -24 10.5 -39.5t29.5 -25t44.5 -13t54.5 -3.5q34 0 58.5 11t40.5 42.5t23.5 88t7.5 146.5v1061h174v-1109q0 -77 -8.5 -132.5t-22 -94t-32 -62.5t-37.5 -39q-25 -21 -79.5 -41.5 t-138.5 -20.5q-66 0 -117.5 18.5t-86 47.5t-52.5 64t-18 67z" />
<glyph unicode="K" horiz-adv-x="1273" d="M192 0v1441h174v-716l185 146l462 570h212l-515 -621l541 -820h-196l-484 757l-205 -163v-594h-174z" />
<glyph unicode="L" horiz-adv-x="1041" d="M192 0v1441h174v-1298h635v-143h-809z" />
<glyph unicode="M" horiz-adv-x="1741" d="M192 0v1441h259l421 -1188l420 1188h257v-1441h-156v1284l-38 -112l-399 -1109h-169l-400 1109l-39 112v-1284h-156z" />
<glyph unicode="N" horiz-adv-x="1561" d="M192 0v1441h217l607 -914l191 -304v1218h162v-1441h-199l-635 963l-182 287v-1250h-161z" />
<glyph unicode="O" horiz-adv-x="1541" d="M121 727q0 130 15.5 225.5t38.5 163t50 110.5t50 69q23 25 63.5 56t101 58t143 45t189.5 18t189 -18.5t142.5 -45.5t101 -58t63.5 -56q23 -26 49.5 -68.5t49.5 -110t38 -162.5t15 -225q0 -149 -18.5 -255t-46 -178t-60 -115t-59.5 -66t-69 -49.5t-99.5 -49.5t-132 -38 t-166.5 -15q-108 0 -190.5 18t-143 45t-100.5 58t-63 57t-49.5 70t-49 114t-37.5 168.5t-15 234.5zM300 721q0 -117 10 -200t25.5 -140t33.5 -92t35 -55q16 -20 47 -42t77 -40t106 -30t135 -12t136 12t107 30.5t77 40.5t48 43q16 21 34.5 56t34 93t25.5 142t10 202 q0 112 -10 192t-25.5 135.5t-33.5 89.5t-34 54t-47 42t-77 40t-106.5 30t-135.5 12q-76 0 -137 -12t-107 -30.5t-77.5 -40.5t-47.5 -42q-17 -21 -35 -55.5t-33 -90.5t-25 -137t-10 -195z" />
<glyph unicode="P" horiz-adv-x="1246" d="M192 0v1441h370q105 0 183 -6.5t136.5 -19.5t99.5 -33t71 -48q22 -20 43.5 -48t39 -67t28.5 -90t11 -117t-11 -117t-29 -89t-40 -65.5t-44 -46.5q-24 -21 -58.5 -40t-84.5 -34t-118.5 -23.5t-159.5 -8.5h-263v-588h-174zM366 728h183q85 0 145.5 4t102.5 11.5t69 19 t47 27.5q15 12 29 28t25 40.5t17.5 61t6.5 89.5q0 55 -7 93.5t-19 65.5t-27.5 44.5t-32.5 30.5q-14 10 -33 20t-49 17.5t-73.5 12t-107.5 4.5h-276v-569z" />
<glyph unicode="Q" horiz-adv-x="1545" d="M121 724q0 138 17 238t42.5 169t55 111.5t54.5 66.5t66 52t99.5 53t136.5 41.5t177 16.5q107 0 189.5 -18.5t143.5 -45.5t101.5 -58t63.5 -56q24 -26 51 -69t50 -110t38.5 -161t15.5 -223q0 -134 -14.5 -230t-35.5 -163.5t-45.5 -110t-44.5 -67.5q-26 -33 -74 -71.5 t-124 -70.5q47 -66 88.5 -116t88.5 -94l-123 -70q-27 27 -50.5 53t-46.5 54.5t-46.5 60.5t-50.5 71q-32 -7 -78.5 -11.5t-92.5 -4.5q-113 0 -200 19.5t-150 49.5t-104.5 65.5t-64.5 67.5q-19 25 -42 67t-43.5 108t-34 160.5t-13.5 225.5zM301 721q0 -106 9 -186.5t23 -139.5 t30 -98t31 -61q13 -21 39.5 -43t76 -39.5t126.5 -29t190 -11.5h16q8 0 16 1q-43 62 -82.5 113.5t-85.5 101.5l129 57q23 -27 44.5 -54t43.5 -55.5t44.5 -61t48.5 -69.5q42 15 75 35t53 42q16 17 36 51t37.5 92.5t29.5 147t12 215.5q0 112 -10 192t-25.5 135t-34 89t-34.5 54 q-17 20 -48 42t-77 40t-106.5 30t-135.5 12q-76 0 -137 -12t-107 -30.5t-77 -40.5t-47 -42q-17 -21 -35 -55.5t-33 -90.5t-25 -137t-10 -194z" />
<glyph unicode="R" horiz-adv-x="1335" d="M192 0v1441h445q47 0 91 -1t86 -3q85 -5 154.5 -23.5t118.5 -56.5q65 -49 95 -127t30 -182q0 -115 -26 -193.5t-87 -126.5q-47 -35 -115 -54t-159 -25q25 -18 51 -44q23 -22 49 -53t51 -71l278 -461l-152 -61q-68 113 -131.5 220t-119.5 197t-102.5 156.5t-79.5 99.5 h-303v-632h-174zM366 775h277h66q32 0 61 1q77 2 128.5 18t85.5 49q31 34 40.5 84.5t9.5 119.5q0 71 -13.5 119.5t-48.5 77.5q-42 35 -115.5 45t-183.5 10h-307v-524z" />
<glyph unicode="S" horiz-adv-x="1211" d="M106 158l66 143q15 -38 55.5 -72t98.5 -60t129.5 -41.5t149.5 -15.5q80 0 138.5 15.5t98.5 44.5q48 36 70.5 91t22.5 127q0 63 -14.5 107.5t-48.5 76t-88.5 54t-134.5 41.5q-63 15 -118.5 28.5t-104 28.5t-91.5 34.5t-82 47.5q-69 53 -100.5 123t-31.5 161q0 86 26 154 t75 115q63 58 163 91q74 25 227 25q118 0 178 -15q76 -18 128.5 -47t83.5 -55t43 -40l-58 -152q-11 16 -39.5 45t-76.5 55q-31 16 -115 43q-41 14 -154 14q-109 0 -162 -17q-66 -20 -103 -67q-42 -53 -42 -145q0 -59 22.5 -98t64.5 -66t101.5 -45t133.5 -35 q73 -18 138 -35.5t120.5 -40.5t99.5 -54t75.5 -75.5t48 -105.5t16.5 -143q0 -121 -42 -210t-130 -145q-129 -82 -355 -82q-92 0 -170.5 15t-140.5 41t-105.5 62.5t-65.5 78.5z" />
<glyph unicode="T" horiz-adv-x="1145" d="M38 1297v144h1068v-144h-448v-1298h-173v1298h-447z" />
<glyph unicode="U" horiz-adv-x="1511" d="M176 679v762h174v-758q0 -107 7 -187t18 -136.5t24.5 -91.5t25.5 -52t37 -37.5t65.5 -38t97.5 -29.5t134 -12q74 0 130.5 11t97 28.5t66 38t37.5 39.5q7 11 19.5 38t23.5 74.5t19.5 119.5t8.5 173v820h174v-753q0 -141 -13.5 -244t-34.5 -175t-47 -115.5t-52 -66.5 q-19 -17 -54.5 -40t-89 -44t-125.5 -36t-164 -15t-165 15t-128 36t-91.5 44t-55.5 40q-27 24 -52 67.5t-44.5 114t-31 171t-11.5 239.5z" />
<glyph unicode="V" horiz-adv-x="1226" d="M21 1441h174l154 -446l33 -96q22 -64 49 -143.5t56 -166.5t55 -165.5t45.5 -141.5t26.5 -93q5 23 17.5 64.5t29.5 95t37.5 115.5t42 126t42.5 126t39 116t32.5 96.5t22.5 66.5l149 446h174l-202 -592q-66 -192 -116.5 -335.5t-87 -245.5t-61 -167t-37.5 -101h-159 q-18 48 -47.5 125t-71.5 191t-98 269.5t-127 359.5z" />
<glyph unicode="W" horiz-adv-x="1789" d="M38 1441h165l252 -963l62 -284l56 282l184 775l52 190h170l51 -190l184 -777l58 -281l61 283l255 965h164l-392 -1441h-173l-237 987l-56 271l-55 -271l-238 -987h-172z" />
<glyph unicode="X" horiz-adv-x="1191" d="M46 0l300 498l153 247l-149 228l-291 468h198q21 -36 46.5 -79t53.5 -90t56.5 -94.5t54.5 -92.5q62 -105 126 -214l333 570h194l-284 -466l-146 -228l157 -247l304 -500h-199l-359 614l-351 -614h-197z" />
<glyph unicode="Y" horiz-adv-x="1142" d="M-4 1441h186q17 -32 39.5 -73t48 -87t52 -94.5t52.5 -93.5q60 -106 125 -221l73 -132l72 132q64 115 125 221q25 45 52.5 93.5t53.5 94.5t49 87t40 73h188q-27 -49 -62.5 -111.5t-75.5 -130.5t-81.5 -139t-81.5 -137q-93 -156 -194 -321v-602h-174v599q-99 165 -191 322 q-39 67 -80.5 138t-80.5 139.5t-74 130.5t-61 112z" />
<glyph unicode="Z" horiz-adv-x="1183" d="M48 102q64 86 141.5 192.5t159 221t163.5 230t154.5 219.5t132.5 190t98 142h-745v144h897l21 -166q-20 -26 -55 -74.5t-81 -114t-101 -143.5t-113.5 -162t-119 -171t-118 -170t-110 -159t-95.5 -137h818v-144h-1007z" />
<glyph unicode="[" horiz-adv-x="621" d="M164 -218v1737h388v-107h-245l18 -217v-1057l-18 -251h245v-105h-388z" />
<glyph unicode="\" horiz-adv-x="676" d="M100 1479l106 30l371 -1601l-109 -29z" />
<glyph unicode="]" horiz-adv-x="619" d="M68 -113h244l-17 262v1036l17 228h-244v107h387v-1738h-387v105z" />
<glyph unicode="^" horiz-adv-x="1147" d="M102 596l392 856h159l391 -856l-194 -14l-191 440l-86 203l-84 -205l-196 -445z" />
<glyph unicode="_" horiz-adv-x="1085" d="M123 -22h839l-1 -104h-837z" />
<glyph unicode="`" horiz-adv-x="846" d="M122 1516l175 74l240 -378l-93 -32z" />
<glyph unicode="a" horiz-adv-x="1091" d="M99 282q0 51 6 86t14.5 59.5t18.5 39.5t18 25q13 16 39.5 35.5t71.5 37t110.5 31t156.5 17.5q45 2 79.5 2t63 1t53 3t48.5 8q0 76 -4 122.5t-11 72t-16 35.5t-19 15q-6 3 -17.5 9t-32.5 12.5t-54.5 11t-82.5 4.5q-68 0 -109 -5t-64 -11q-26 -7 -37 -15q-15 -9 -28 -27 q-11 -15 -23 -39.5t-18 -61.5l-128 48q9 46 22 77.5t31 53t41 36t51 27.5q41 19 103.5 31t156.5 12q92 0 155.5 -12t104 -29.5t61.5 -37t29 -34.5q7 -14 14.5 -36.5t13.5 -60t10 -94.5t4 -140v-380q0 -39 2 -61.5t8 -33.5t18 -14t33 -3v-114q-20 -6 -36 -8t-34 -2 q-39 5 -63.5 20.5t-37.5 36t-17.5 43.5t-4.5 43q-13 -17 -40.5 -41t-70 -46.5t-102 -38t-136.5 -15.5q-66 0 -116 9.5t-85.5 24t-58 31.5t-33.5 31q-8 10 -18 28t-19 44t-15 60t-6 77zM256 285q0 -50 8 -82t15 -44q6 -10 17 -20.5t33.5 -19.5t60 -14.5t97.5 -5.5 q70 0 124 16t91 43t56.5 62.5t19.5 74.5v220q-18 -6 -37.5 -8.5t-45.5 -4.5t-62.5 -3t-87.5 -4q-66 -5 -111.5 -13.5t-75.5 -19t-47 -22t-26 -22.5q-12 -14 -20.5 -46.5t-8.5 -86.5z" />
<glyph unicode="b" horiz-adv-x="1162" d="M158 0v1441h154v-597q18 30 42.5 63t63 60.5t94 45.5t134.5 18q69 0 120.5 -11t87.5 -27t59 -33t36 -30q17 -17 34.5 -46.5t31.5 -79t23 -122t9 -176.5q0 -96 -7.5 -161.5t-18 -109t-22.5 -69.5t-22 -43q-13 -23 -38.5 -49t-65.5 -47.5t-96.5 -35.5t-131.5 -14 q-90 0 -152 21t-102.5 50.5t-62.5 60t-32 48.5l-19 -157h-119zM311 512q0 -80 5.5 -138.5t13 -98.5t16.5 -63.5t17 -32.5q11 -15 28.5 -29t45.5 -25t69.5 -18t101.5 -7q57 0 96.5 7t65.5 18.5t41 25t23 25.5q9 12 19 32.5t18.5 57t14 92.5t5.5 140q0 87 -5.5 145.5t-14 96.5 t-18 59.5t-17.5 34.5t-23 26t-41 23.5t-65.5 17.5t-97.5 7q-60 0 -100.5 -7.5t-67.5 -18t-43 -24t-25 -25.5q-10 -13 -21 -33.5t-20 -57t-15 -92t-6 -138.5z" />
<glyph unicode="c" horiz-adv-x="1068" d="M109 509q0 95 10.5 163t26.5 115t34.5 76.5t34.5 47.5t45 39.5t73.5 40.5t104.5 31.5t138 12.5q73 0 126.5 -11t91 -26t60.5 -31.5t35 -28.5q10 -10 21.5 -25t22.5 -38t20.5 -56t14.5 -80l-126 -35q-6 36 -12 60.5t-12 40.5t-12 25.5t-11 15.5q-10 11 -27 22.5 t-43.5 20.5t-64 15t-88.5 6q-62 0 -104.5 -7.5t-71 -19t-45.5 -25.5t-27 -27t-20.5 -33.5t-19 -56.5t-14 -92.5t-5.5 -141.5q0 -88 6 -146t15 -95t20 -57.5t22 -33.5q10 -14 27.5 -27.5t46.5 -25t71.5 -18.5t103.5 -7q52 0 90 6t65 15.5t44 21t28 22.5q6 6 12 15.5t12 25.5 t12.5 40.5t12.5 60.5l121 -35q-5 -46 -13.5 -78.5t-20 -55.5t-23.5 -37.5t-22 -24.5q-12 -12 -35.5 -28.5t-62 -31.5t-93 -25.5t-129.5 -10.5q-78 0 -138 12.5t-104.5 31t-73.5 40t-45 39.5t-34.5 48t-34 78t-26 117t-10.5 166z" />
<glyph unicode="d" horiz-adv-x="1163" d="M114 505q0 103 9.5 175.5t24 122t32.5 79t35 47.5q13 13 36.5 31t60 34.5t88 27.5t120.5 11q76 0 132.5 -14.5t96 -38.5t64 -56t38.5 -67v584h154v-1441h-122l-18 166q-13 -23 -35 -55t-61 -62t-100 -51t-151 -21q-77 0 -133.5 14.5t-97 36.5t-66 48t-38.5 49 q-10 17 -22 42.5t-22.5 68t-17.5 108t-7 161.5zM270 495q0 -84 5.5 -139t14 -90t18 -54.5t18.5 -31.5t23.5 -26t40.5 -25.5t65.5 -19t97.5 -7.5t98.5 7.5t67.5 19t42.5 25t25.5 26.5q10 12 21 32.5t20.5 57t16 93t6.5 142.5q0 74 -4.5 127t-10.5 89t-12.5 56.5t-10.5 28.5 q-32 57 -95.5 80t-161.5 23q-59 0 -99 -8t-66.5 -20t-41.5 -26.5t-24 -27.5t-18.5 -35t-17.5 -60t-13.5 -95.5t-5.5 -141.5z" />
<glyph unicode="e" horiz-adv-x="1096" d="M110 505q0 99 12 169t29.5 118t37 77.5t35.5 47.5q15 18 42 38.5t67.5 38t96.5 29t130 11.5q83 0 143 -13.5t101.5 -34t67 -44t40.5 -44.5q11 -15 24 -39.5t25 -61.5t20 -88t8 -118q0 -5 -0.5 -20.5t-0.5 -33t-0.5 -34t-0.5 -23.5h-721q0 -111 19 -180t42 -107 q27 -45 62 -64q14 -9 39 -16q21 -6 55 -11t85 -5q50 0 86.5 5t61.5 12.5t40.5 15t24.5 13.5q27 18 44 55.5t30 108.5l124 -34q-8 -48 -18 -80.5t-20 -53t-19.5 -31.5t-15.5 -18q-16 -19 -43.5 -39t-68.5 -36.5t-98 -27t-132 -10.5q-78 0 -135.5 10.5t-98 27t-66.5 36.5 t-42 38q-15 18 -34.5 48.5t-37 79.5t-29 119.5t-11.5 168.5zM268 594h333h154l79 -6q-4 71 -13 120t-20.5 81t-24 49t-23.5 25q-22 15 -69 31.5t-128 16.5q-51 0 -88 -6.5t-63 -16.5t-42.5 -21t-25.5 -21t-20 -27.5t-21 -47.5t-18 -73t-10 -104z" />
<glyph unicode="f" horiz-adv-x="697" d="M66 899v112h192v124q0 73 6 119t14.5 74t18 41.5t16.5 20.5q5 5 18.5 16t37.5 22.5t60.5 20.5t89.5 9q36 0 61.5 -5t42.5 -11q19 -7 31 -16q13 -10 26 -23q11 -12 22.5 -29.5t19.5 -42.5l-82 -70q-9 16 -18 27.5t-17 18.5q-9 8 -16 13q-7 3 -17 6q-8 2 -21 4t-30 2 q-32 0 -50.5 -5t-27.5 -11q-11 -7 -14 -15q-5 -3 -9 -22q-4 -17 -6.5 -53t-2.5 -104v-111h219v-112h-219v-899h-153v899h-192z" />
<glyph unicode="g" horiz-adv-x="1161" d="M115 507q0 100 8 169t21 115.5t27.5 74t28.5 45.5q13 18 38 39.5t64 40t93 31t127 12.5q89 0 149.5 -21.5t100.5 -50.5t62 -60.5t34 -50.5l19 160h118v-949q0 -85 -11.5 -147t-28 -105t-35 -69.5t-32.5 -40.5q-15 -14 -41 -32t-66.5 -33.5t-97 -26t-131.5 -10.5 q-71 0 -124 8.5t-90.5 20t-60.5 23t-33 18.5q-10 6 -24 19.5t-27.5 35t-25 53t-15.5 74.5l87 47q20 -44 36 -69.5t28 -39.5q14 -17 26 -23q14 -12 43 -22q25 -8 67.5 -15t111.5 -7q52 0 92 7t69.5 17.5t48 23t27.5 24.5q6 8 15.5 22.5t18 44t14.5 76.5q5 40 5 100v20l-1 94 q-21 -34 -49 -63.5t-67.5 -51.5t-92.5 -34.5t-125 -12.5t-126 12.5t-92 31t-62 40t-37 39.5q-14 18 -28.5 46.5t-27 74.5t-20.5 113t-8 162zM272 518q0 -84 5 -141t13.5 -94t18 -58.5t18.5 -34.5t24 -26.5t42 -24t67.5 -17.5t99.5 -7t99 6.5t66.5 17t42 23.5t24.5 25 t19.5 32t19.5 55t15 88.5t6 133.5q0 84 -6 145t-15 102t-20 64.5t-21 34.5q-11 11 -27 23.5t-42.5 22.5t-66 16.5t-97.5 6.5t-98 -7t-66.5 -18t-41.5 -24t-24 -25t-18.5 -32t-17.5 -56t-13.5 -91.5t-5.5 -139.5z" />
<glyph unicode="h" horiz-adv-x="1163" d="M157 0v1441h153v-556q20 28 49.5 54.5t71 47.5t96 34t125.5 13q67 0 117 -10t84.5 -24t56 -30t32.5 -28q13 -15 26 -37.5t23 -64t16.5 -107t6.5 -165.5v-568h-154v616q0 60 -4.5 99t-11.5 63t-14 36.5t-11 20.5q-7 12 -20 25t-37 23.5t-62 17.5t-96 7q-61 0 -104 -8 t-72.5 -20t-46.5 -27t-26 -29q-6 -9 -13.5 -23.5t-14.5 -41t-12 -67.5t-5 -103v-589h-153z" />
<glyph unicode="i" horiz-adv-x="470" d="M142 1271q0 49 19 74t73 25q30 0 48.5 -6.5t28.5 -19t13.5 -31t3.5 -42.5q0 -48 -18.5 -67t-75.5 -19q-51 0 -71.5 19t-20.5 67zM158 0v1011h154v-1011h-154z" />
<glyph unicode="j" horiz-adv-x="469" d="M-254 -130q3 -43 13.5 -72t21.5 -47q13 -21 29 -34q15 -14 42 -25q23 -9 62.5 -16.5t99.5 -7.5q67 0 112.5 13t74.5 29q33 18 54 43q16 21 28 57q11 31 19.5 80.5t8.5 121.5v999h-153v-999q0 -62 -3.5 -99.5t-8.5 -57.5q-5 -24 -11 -33q-6 -12 -22 -21q-14 -8 -38.5 -14 t-64.5 -6q-29 0 -50 3.5t-35 8.5q-16 5 -26 12q-7 7 -15 19q-7 11 -14.5 27.5t-14.5 42.5zM140 1271q0 49 19 74t73 25q30 0 48.5 -6.5t28.5 -19t13.5 -31t3.5 -42.5q0 -48 -18.5 -67t-75.5 -19q-51 0 -71.5 19t-20.5 67z" />
<glyph unicode="k" horiz-adv-x="995" d="M158 0v1441h153v-924l110 116l350 397l133 -57l-349 -382l395 -565l-135 -47l-384 544l-120 -118v-405h-153z" />
<glyph unicode="l" horiz-adv-x="484" d="M165 0v1441h153v-1441h-153z" />
<glyph unicode="m" horiz-adv-x="1730" d="M158 0v1011h127l11 -147q18 22 43.5 51t63.5 55.5t90.5 45t124.5 18.5q62 0 107.5 -10.5t77 -26.5t51 -33.5t29.5 -31.5q8 -11 18 -29t20 -46q17 22 41 52t62 58t93.5 47.5t136.5 19.5q85 0 138.5 -19.5t84.5 -42.5q36 -27 53 -62q14 -23 25 -66q10 -37 18 -99t8 -159 v-586h-153v619q0 67 -6 111t-15.5 72t-21 42t-21.5 22q-6 5 -16 12.5t-27.5 14t-44 11.5t-66.5 5q-53 0 -89 -6.5t-60 -16.5t-38 -21.5t-22 -21.5q-8 -11 -18 -27.5t-18 -46t-13.5 -74t-5.5 -110.5v-585h-154v603q0 71 -6 118.5t-15 77t-20.5 45t-21.5 23.5q-6 4 -16 11.5 t-27.5 14.5t-44.5 12t-67 5q-49 0 -81.5 -6t-54 -14t-33.5 -17l-20 -15q-15 -12 -28.5 -31t-23.5 -54.5t-16 -91.5t-6 -141v-540h-153z" />
<glyph unicode="n" horiz-adv-x="1160" d="M158 0v1011h127l12 -148q18 26 47 56t72 55.5t102 42.5t138 17q89 0 146.5 -20t90.5 -43q39 -28 59 -63q16 -25 29 -68q11 -37 20.5 -98.5t9.5 -154.5v-587h-154v617q0 60 -5 98.5t-11.5 62.5t-14 36.5t-11.5 19.5q-8 12 -21 25.5t-37 24t-60 17.5t-90 7q-63 0 -106.5 -8 t-73 -20.5t-46 -27.5t-25.5 -29t-17 -34.5t-14 -53t-9.5 -78.5t-3.5 -112v-545h-154z" />
<glyph unicode="o" horiz-adv-x="1153" d="M109 506q0 96 10.5 164.5t26 116.5t34 77.5t34.5 47.5t45 39t73.5 39.5t104 31t137.5 12.5t138.5 -12.5t105 -31t74 -39.5t45.5 -38q16 -18 34.5 -47.5t34.5 -76.5t26.5 -115.5t10.5 -164.5t-10.5 -166t-26.5 -118.5t-34.5 -79t-34.5 -48.5t-45 -39t-73.5 -39t-105 -30 t-139.5 -12q-78 0 -138 12t-104 30.5t-72.5 39.5t-44.5 39t-34.5 48.5t-34.5 78.5t-26.5 117t-10.5 164zM266 502q0 -83 5.5 -139t14.5 -93t19.5 -58.5t20.5 -33.5t28.5 -25.5t48.5 -25t73.5 -18.5t103.5 -7q59 0 101.5 7.5t71.5 18.5t46.5 25t27.5 27t20.5 34t19 58t14 93 t5.5 139q0 87 -6 145t-15.5 95.5t-20.5 58.5t-21 33q-11 12 -29 25t-47.5 23.5t-72 17.5t-100.5 7q-60 0 -102.5 -7t-71.5 -18.5t-47 -25t-28 -26.5t-20.5 -34t-19 -58.5t-14 -95t-5.5 -142.5z" />
<glyph unicode="p" horiz-adv-x="1162" d="M158 -379v1390h121l16 -170q12 24 34 57t62.5 63t103 51.5t153.5 21.5q72 0 125.5 -12.5t92 -31t62.5 -39.5t37 -39t27.5 -45t26.5 -72.5t20 -114t8 -168.5q0 -101 -8.5 -171t-21 -118t-28 -77t-28.5 -47q-14 -18 -38.5 -39.5t-63.5 -39.5t-93.5 -30.5t-127.5 -12.5 q-75 0 -127.5 16t-90 40.5t-63 55.5t-45.5 61v-529h-154zM311 510q0 -82 10.5 -143t28.5 -105.5t41.5 -74.5t50.5 -48q5 -4 13.5 -10t26 -12t47 -10.5t76.5 -4.5q58 0 97.5 6.5t66 17.5t41.5 24.5t24 27.5q8 13 18 35.5t18.5 61.5t14 98t5.5 144q0 83 -5.5 138.5t-14 91 t-18 55.5t-17.5 32t-22.5 24.5t-40.5 23.5t-65.5 18t-97.5 7q-60 0 -101 -7.5t-68 -18.5t-42.5 -24.5t-24.5 -26.5q-10 -13 -21 -33.5t-20 -56t-15 -91t-6 -139.5z" />
<glyph unicode="q" horiz-adv-x="1162" d="M115 506q0 96 7 161t17.5 108t23 68.5t22.5 43.5q13 23 38.5 49t66 47.5t97.5 36t134 14.5q91 0 152.5 -22.5t101.5 -53t61 -62t31 -48.5l18 163h119v-1390h-155v539q-24 -53 -58 -88.5t-76 -56.5t-91.5 -29.5t-104.5 -8.5q-75 0 -131.5 14t-96.5 35.5t-66 47t-39 48.5 q-10 17 -22.5 43.5t-23 71t-18 110t-7.5 159.5zM270 512q0 -84 5 -141t13 -95.5t17.5 -60.5t18.5 -35t24 -27t41.5 -25t66.5 -18.5t99 -7.5q59 1 100 8.5t68 18.5t43 24.5t25 25.5t20 33.5t20 59t15 93.5t6 138q0 76 -4.5 129t-10.5 88.5t-12 54.5t-10 27q-29 58 -93.5 83 t-166.5 25q-58 0 -97.5 -7.5t-66 -19t-41.5 -25t-24 -26.5t-19 -33t-18 -56t-13.5 -91.5t-5.5 -139.5z" />
<glyph unicode="r" horiz-adv-x="698" d="M158 0v817v194h139l6 -157q28 38 60 71t70 57t85 38t106 14h19v-153h-7q-3 0 -7 0.5t-8 0.5q-42 0 -90 -8t-92 -28.5t-79.5 -56.5t-53.5 -91v-698h-148z" />
<glyph unicode="s" horiz-adv-x="962" d="M98 228l125 52q11 -57 31 -93t51.5 -56t75 -27t102.5 -7q41 0 74.5 6t58.5 14.5t41 18.5t24 18q11 10 22 37.5t11 67.5q0 42 -10.5 68.5t-34 44.5t-60.5 30.5t-89 25.5q-92 25 -167 48.5t-128 57.5t-81.5 84.5t-28.5 130.5q0 36 7 65.5t17.5 52.5t23 39.5t22.5 26.5 q13 13 38 30.5t62 33t86.5 26.5t111.5 11q107 0 173.5 -24.5t104.5 -60.5t52.5 -76.5t18.5 -73.5l-117 -52q-12 57 -34.5 90t-53 49.5t-68 20.5t-80.5 4q-39 0 -70 -5.5t-54 -13t-38 -16.5t-23 -16q-10 -9 -21.5 -32t-11.5 -64q2 -37 11 -61.5t31.5 -42t61 -31t100.5 -28.5 q37 -11 81 -22t88.5 -26t86 -36.5t73.5 -53.5t51.5 -77t19.5 -107q0 -38 -7 -70.5t-18 -58t-25 -44.5t-28 -31q-13 -11 -37 -27.5t-61.5 -32.5t-90.5 -27t-123 -11q-104 0 -171.5 19t-109 53t-63 79.5t-33.5 99.5z" />
<glyph unicode="t" horiz-adv-x="760" d="M60 896v115h178v322l142 48v-370h243v-115h-243v-609q0 -49 3 -80t8 -48q5 -20 12 -30q5 -8 16 -14q10 -5 26.5 -9t44.5 -4q29 0 48 2t30 5q12 3 19 7q8 5 16 18q7 11 15 31t14 55l91 -53q-5 -43 -14 -69.5t-17 -42.5q-10 -18 -21 -28q-16 -14 -41 -25 q-22 -10 -55.5 -17.5t-83.5 -7.5t-87.5 8t-64 19.5t-42 24.5t-21.5 22q-6 10 -14.5 28t-16.5 48.5t-13.5 75.5t-5.5 109v584h-166z" />
<glyph unicode="u" horiz-adv-x="1157" d="M149 376v635h154v-608q0 -61 4 -100.5t10 -64.5t12.5 -38t11.5 -20q6 -13 18.5 -27t36 -25t60.5 -18.5t91 -7.5q59 0 100 7t68 17.5t43 22.5t26 23q10 10 21 26t20 44.5t15 71.5t6 108v589h153v-1011h-128l-13 146q-10 -15 -32 -43.5t-63 -56.5t-104 -48.5t-154 -20.5 q-66 0 -114.5 9.5t-83 23.5t-55.5 29.5t-32 26.5t-23.5 31t-23 55t-17.5 89.5t-7 134.5z" />
<glyph unicode="v" horiz-adv-x="967" d="M53 1011h160l198 -610l75 -260l74 260l196 610h158l-339 -1011h-179z" />
<glyph unicode="w" horiz-adv-x="1485" d="M59 1011h161l158 -624l62 -262l53 251l164 635h170l164 -628l59 -256l63 256l154 628h158l-290 -1011h-175l-170 651l-49 223l-51 -229l-165 -645h-176z" />
<glyph unicode="x" horiz-adv-x="968" d="M64 17l333 509l-322 467l157 34l252 -377l247 377l154 -34l-314 -465l340 -511l-155 -34l-271 417l-268 -417z" />
<glyph unicode="y" horiz-adv-x="1157" d="M149 376v635h154v-608q0 -61 4 -100.5t10 -64.5t12.5 -38t11.5 -20q6 -13 18.5 -27t36 -25t60.5 -18.5t91 -7.5q59 0 100 7t68 17.5t43 22.5t26 23q10 10 21 26t20 44.5t15 71.5t6 108v589h153v-949q0 -85 -11.5 -147t-28 -105t-35 -69.5t-32.5 -40.5q-15 -14 -41 -32 t-66.5 -33.5t-97 -26t-131.5 -10.5q-71 0 -124 8.5t-90.5 20t-60.5 23t-33 18.5q-10 6 -24 19.5t-27.5 35t-25 53t-15.5 74.5l87 47q20 -44 36 -69.5t28 -39.5q14 -17 26 -23q14 -12 43 -22q25 -8 67.5 -15t111.5 -7q52 0 92 7t69.5 17.5t48 23t27.5 24.5q6 8 15 22.5 t17.5 44t14.5 76.5t6 120v72q-12 -18 -34 -44t-61.5 -49.5t-99 -40.5t-145.5 -17q-66 0 -114.5 9.5t-83 23.5t-55.5 29.5t-32 26.5t-23.5 31t-23 55t-17.5 89.5t-7 134.5z" />
<glyph unicode="z" horiz-adv-x="900" d="M82 117l420 614l125 162l-162 -6h-344v124h666l14 -107l-413 -606l-135 -178l121 5h430v-125h-709z" />
<glyph unicode="{" horiz-adv-x="573" d="M60 581v116q34 13 62 31.5t51 41.5q17 88 23.5 177t11.5 174q7 105 20 182t42 127t78.5 74t129.5 24l25 -100q-49 0 -78 -30t-45 -84.5t-22 -130.5t-9 -169q-2 -51 -4 -95t-4.5 -79.5t-6.5 -59.5t-8 -34q-23 -33 -51.5 -58.5t-64.5 -48.5q36 -23 64.5 -48.5t51.5 -58.5 q4 -10 8 -34t6.5 -59.5t4.5 -79.5t4 -95q3 -93 9 -169t22 -130.5t45 -84.5t78 -30l-25 -100q-80 0 -129.5 24t-78.5 74t-42 127t-20 182q-5 85 -11.5 174t-23.5 177q-23 23 -51 41.5t-62 31.5z" />
<glyph unicode="|" horiz-adv-x="500" d="M162 -301v1837h176v-1837h-176z" />
<glyph unicode="}" horiz-adv-x="574" d="M71 -150q49 0 78 30t45 84.5t22 130.5t9 169q1 51 3.5 95t5 79.5t6 59.5t8.5 34q23 33 51.5 58.5t64.5 48.5q-36 23 -64.5 48.5t-51.5 58.5q-5 10 -8.5 34t-6 59.5t-5 79.5t-3.5 95q-3 93 -9 169t-22 130.5t-45 84.5t-78 30l25 100q79 0 129 -24t79 -74t42 -127t20 -182 q5 -85 11.5 -174t23.5 -177q23 -23 51 -41.5t62 -31.5v-116q-34 -13 -62 -31.5t-51 -41.5q-17 -88 -23.5 -177t-11.5 -174q-7 -105 -20 -182t-42 -127t-79 -74t-129 -24z" />
<glyph unicode="~" horiz-adv-x="1142" d="M116 547q9 38 26 81t46 79t70.5 60t99.5 24q39 0 79 -13t79.5 -32t77 -41.5t72.5 -41.5t65.5 -32t55.5 -13q30 0 50.5 10t35 27.5t25 41.5t21.5 51l111 -56q-7 -38 -24.5 -78t-47.5 -73t-73.5 -54t-102.5 -21q-36 0 -74.5 12t-78 30t-77.5 39.5t-73 39.5t-64.5 30 t-50.5 12q-26 0 -46 -10t-36.5 -28t-29.5 -42.5t-25 -54.5z" />
<glyph unicode="&#xa1;" horiz-adv-x="496" d="M143 1366v-221h211v221h-211zM167 195v-195h162v195q-4 101 -9 206.5t-10.5 212t-10.5 212t-9 205.5h-83q-5 -100 -10 -205.5t-10 -212t-10 -212t-10 -206.5z" />
<glyph unicode="&#xa2;" horiz-adv-x="1028" d="M80 509q0 95 10.5 163t26.5 115t34.5 76.5t34.5 47.5q15 17 41.5 37t66.5 38t94 31.5t123 16.5v282l89 12v-295q59 -4 103 -15.5t75.5 -25.5t51 -29t30.5 -25q10 -10 21.5 -25t22.5 -38t20.5 -56t14.5 -80l-126 -35q-6 36 -12 60.5t-12 40.5t-12 25.5t-11 15.5 q-17 18 -55 37t-111 25v-810q76 6 116.5 25t58.5 39q6 6 12 15.5t12 25.5t12.5 40.5t12.5 60.5l121 -35q-5 -46 -13.5 -78.5t-20 -55.5t-23.5 -37.5t-22 -24.5q-11 -11 -31 -25t-52.5 -28t-77.5 -25.5t-105 -15.5v-343l-89 -12v354q-70 3 -124 15.5t-94 30.5t-66.5 38.5 t-41.5 37.5q-16 18 -34.5 48t-34 78t-26 117t-10.5 166zM236 507q0 -88 6 -146t15 -95t20 -57.5t22 -33.5q10 -12 25 -25t40 -24t60.5 -19t86.5 -10v812q-53 -2 -89.5 -10t-62 -19t-40.5 -24t-24 -25q-10 -13 -20.5 -33.5t-19 -56.5t-14 -92.5t-5.5 -141.5z" />
<glyph unicode="&#xa3;" horiz-adv-x="1130" d="M93 96q52 15 84 45t49.5 70.5t23.5 88.5t7 101l4 190h-154v118h163l9 222q5 118 30.5 198.5t73 129.5t117 70t161.5 21q83 0 141.5 -14t98.5 -45t64.5 -79.5t39.5 -118.5l-107 -72q-10 50 -23 87.5t-34.5 63t-52.5 38.5t-77 13q-85 0 -138 -9.5t-83.5 -39.5t-43.5 -86 t-18 -149l-12 -230h321l-16 -118h-316l-6 -177q-2 -50 -5.5 -92t-11.5 -77.5t-21 -65t-34 -54.5l2 -2q31 13 62 18t62 5q34 0 68 -6t67.5 -13t67.5 -13t67 -6q69 0 137 21.5t135 68.5l41 -134q-61 -33 -130.5 -60t-146.5 -27q-43 0 -87.5 8.5t-89.5 18t-90.5 18t-89.5 8.5 q-20 0 -42 -2t-53 -6.5t-75 -12t-108 -18.5z" />
<glyph unicode="&#xa4;" horiz-adv-x="1242" d="M150 451l114 116q-23 53 -34 110t-11 116q0 66 14 131.5t43 122.5l-126 129l110 108l47 -47q20 -20 41 -42t37 -38q42 28 101 44t135 16t135 -16t101 -44q15 16 36.5 38t41.5 42l47 47l110 -108l-126 -129q29 -57 43 -122.5t14 -131.5q0 -59 -11 -116t-34 -110l114 -116 l-110 -107l-100 100q-45 -34 -109.5 -51.5t-151.5 -17.5t-151.5 17.5t-109.5 51.5l-100 -100zM366 793q0 -20 1 -44.5t5 -50.5t12 -52t22 -50q27 -47 76 -71.5t139 -24.5t139 24.5t76 71.5q14 24 22 50t12 52t5 50.5t1 44.5q0 24 -0.5 52.5t-6 59t-17 60t-32.5 55.5 q-29 35 -76.5 53.5t-122.5 18.5t-122.5 -18.5t-76.5 -53.5q-21 -26 -32.5 -55.5t-17 -60t-6 -59t-0.5 -52.5z" />
<glyph unicode="&#xa5;" horiz-adv-x="1209" d="M60 1418h160l318 -574l63 -118h10l60 118l315 574h163l-367 -643h188v-109h-255l-40 -66v-43h295v-111h-295v-446h-143v446h-295v111h295v43l-41 66h-254v109h188z" />
<glyph unicode="&#xa6;" horiz-adv-x="546" d="M168 -162v762h209v-762h-209zM168 766v764h209v-764h-209z" />
<glyph unicode="&#xa7;" horiz-adv-x="1016" d="M119 663q0 104 56.5 170t153.5 93q-50 28 -82 59.5t-50.5 65.5t-25.5 69t-7 70q0 83 27 139t75.5 90t115 48.5t145.5 14.5q82 0 139.5 -7t96.5 -25.5t63.5 -51t39.5 -82.5l-99 -60q-11 35 -28 58t-44.5 36t-67.5 18t-96 5q-69 0 -113 -11t-69.5 -33t-35.5 -55t-10 -77 q0 -66 44.5 -113.5t113.5 -86.5l306 -174q39 -23 67 -48.5t46 -55.5t26.5 -67t8.5 -82q0 -78 -48 -136t-137 -96q39 -24 63 -51.5t37.5 -58t18 -63.5t4.5 -67q0 -88 -21.5 -146.5t-66 -93t-112.5 -48.5t-161 -14q-84 0 -147.5 5.5t-108.5 24.5t-73 55.5t-41 99.5l91 60 q11 -39 28.5 -65t48.5 -41.5t80.5 -22t125.5 -6.5q50 0 90 4.5t67.5 22t42 52.5t14.5 97q0 38 -8.5 64t-26 45t-43 35t-58.5 34l-271 140q-64 36 -101 66t-55.5 60t-23 62.5t-4.5 74.5zM261 678q0 -41 12 -67.5t31.5 -44.5t43.5 -31t47 -25l246 -121q37 13 66 36 q25 19 45.5 50t20.5 77q0 45 -15 75.5t-38 53t-51 39t-54 32.5l-220 124q-28 -8 -52.5 -23.5t-42.5 -40t-28.5 -58t-10.5 -76.5z" />
<glyph unicode="&#xa8;" horiz-adv-x="688" d="M44 1341q0 49 19 74t73 25q30 0 48.5 -6.5t28.5 -19t13.5 -31t3.5 -42.5q0 -48 -18.5 -71.5t-75.5 -23.5q-51 0 -71.5 23.5t-20.5 71.5zM462 1341q0 49 19 74t73 25q30 0 48.5 -6.5t28.5 -19t13.5 -31t3.5 -42.5q0 -48 -18.5 -71.5t-75.5 -23.5q-51 0 -71.5 23.5 t-20.5 71.5z" />
<glyph unicode="&#xa9;" horiz-adv-x="1458" d="M95 633q0 133 49.5 249t135.5 202t201 135.5t246 49.5q88 0 169 -22.5t152 -63.5t129 -98.5t99.5 -127.5t64.5 -151t23 -168q0 -88 -23 -170t-64.5 -153t-99.5 -129t-129 -99.5t-152 -64t-169 -22.5q-131 0 -246 50t-201 136t-135.5 201t-49.5 246zM207 633 q0 -111 41 -208.5t111.5 -171t165.5 -116t202 -42.5q108 0 203 42.5t165.5 116t111 171t40.5 208.5q0 112 -40.5 210.5t-111 172t-165.5 115.5t-203 42q-107 0 -202 -42t-165.5 -115.5t-111.5 -172t-41 -210.5zM335 633q0 96 34 171.5t90.5 127.5t128.5 79.5t148 27.5 q78 0 152.5 -29t135.5 -89l-62 -62q-53 45 -110 66.5t-112 21.5q-56 0 -107 -21.5t-89.5 -62.5t-61 -101t-22.5 -137q0 -74 22.5 -133.5t61.5 -101.5t91 -64.5t111 -22.5q61 0 125.5 26t126.5 83l51 -58q-66 -75 -146 -110t-162 -35q-78 0 -151 30t-130 85.5t-91 133.5 t-34 175z" />
<glyph unicode="&#xaa;" horiz-adv-x="885" d="M104.06 623.446q0 36.6133 4.30664 61.7393t10.4072 42.7148q6.10156 17.5879 13.2793 28.3564t12.9199 17.9482q9.33105 11.4863 28.3516 25.4844q19.0215 13.999 51.3213 26.5625t79.3135 22.2549q47.0146 9.69141 112.332 12.5635q32.2998 1.43555 57.0625 1.43555 q24.7637 0 45.2207 0.717773q20.4561 0.717773 38.041 2.15332q17.5859 1.43652 34.8125 5.74316q0 54.5605 -2.87109 87.9424q-2.87109 33.3828 -7.89551 51.6885q-5.02441 18.3066 -11.4844 25.4854t-13.6377 10.7686q-4.30664 2.15332 -12.5605 6.46094 q-8.25488 4.30762 -23.3281 8.97363t-39.1191 7.89746q-24.0449 3.23047 -59.2158 3.23047q-48.8086 0 -78.2373 -3.58984t-45.9375 -7.89648q-18.6621 -5.02539 -26.5576 -10.7686q-10.7666 -6.46094 -20.0977 -19.3838q-7.89551 -10.7686 -16.5088 -28.3564 q-8.61328 -17.5889 -12.9199 -44.1504l-91.875 34.459q6.45996 33.0234 15.791 55.6367t22.251 38.0488q12.9199 15.4346 29.4287 25.8438t36.6064 19.7422q29.4287 13.6396 74.29 22.2549q44.8604 8.61426 112.331 8.61426q66.0352 0 111.614 -8.61426 q45.5781 -8.61523 74.6484 -21.1777q29.0693 -12.5635 44.1426 -26.5625t20.8154 -24.7676q5.02441 -10.0498 10.4072 -26.2031q5.38379 -16.1523 9.69043 -43.0732q4.30664 -26.9219 7.17773 -67.8418t2.87109 -100.505v-272.801q0 -27.9971 1.43555 -44.1504 q1.43555 -16.1523 5.74219 -24.0498q4.30664 -7.89648 12.9199 -10.0498q8.61328 -2.1543 23.6865 -2.1543v-81.8398q-14.3555 -4.30762 -25.8398 -5.74316t-24.4043 -1.43555q-27.9932 3.58984 -45.5781 14.7168q-17.5859 11.127 -26.917 25.8438t-12.5615 31.2285 q-3.22949 16.5117 -3.22949 30.8701q-9.33105 -12.2041 -29.0693 -29.4336q-19.7393 -17.2295 -50.2441 -33.3828q-30.5059 -16.1523 -73.2129 -27.2793q-42.708 -11.1279 -97.9766 -11.1279q-47.373 0 -83.2617 6.82031t-61.3691 17.2295 q-25.4814 10.4092 -41.6309 22.6133q-16.1504 12.2041 -24.0459 22.2549q-5.74219 7.17871 -12.9199 20.1016q-7.17773 12.9219 -13.6377 31.5869t-10.7666 43.0742q-4.30664 24.4082 -4.30664 55.2773zM216.75 625.601q0 -35.8955 5.74219 -58.8682t10.7666 -31.5869 q4.30664 -7.17871 12.2021 -14.7168t24.0449 -13.999q16.1504 -6.46094 43.0664 -10.4092q26.917 -3.94922 69.9834 -3.94922q50.2441 0 89.0039 11.4863t65.3174 30.8701q26.5576 19.3828 40.5547 44.8682q13.9961 25.4854 13.9961 53.4834v157.937 q-12.9199 -4.30664 -26.916 -6.10156q-13.9971 -1.79492 -32.6592 -3.23047q-18.6621 -1.43652 -44.8604 -2.1543q-26.1992 -0.717773 -62.8057 -2.87109q-47.373 -3.58984 -80.0322 -9.69141q-32.6582 -6.10254 -54.1914 -13.6406t-33.7354 -15.793 q-12.2021 -8.25586 -18.6621 -16.1533q-8.61328 -10.0508 -14.7139 -33.3818q-6.10156 -23.332 -6.10156 -62.0977z" />
<glyph unicode="&#xab;" horiz-adv-x="1100" d="M58 721l387 391l104 -92l-323 -299l323 -301l-104 -90zM496 721l389 391l101 -92l-322 -299l322 -301l-101 -90z" />
<glyph unicode="&#xac;" horiz-adv-x="1388" d="M153 532v101h1076v-633h-179v532h-897z" />
<glyph unicode="&#xad;" horiz-adv-x="841" d="M141 474v131h559v-131h-559z" />
<glyph unicode="&#xae;" horiz-adv-x="1392" d="M104 811q0 122 46 228.5t126 185.5t187.5 124.5t230.5 45.5t231.5 -45.5t189 -124t127.5 -184.5t47 -226q0 -122 -47 -228.5t-127.5 -186t-189 -125t-231.5 -45.5t-230.5 45.5t-187.5 124.5t-126 185t-46 226zM235 811q0 -98 36.5 -185t98.5 -152t145.5 -102.5 t178.5 -37.5t178.5 37.5t146 102.5t98.5 152t36 185q0 100 -36 187t-98.5 152t-146 102.5t-178.5 37.5t-178.5 -37.5t-145.5 -102.5t-98.5 -152t-36.5 -187zM487 462v674h197q62 0 110.5 -8t81.5 -29t50.5 -57t17.5 -93q0 -39 -14.5 -69.5t-39 -53t-57.5 -35.5t-69 -16 l174 -288l-78 -47l-186 327h-97v-305h-90zM577 844h107q46 0 79 4.5t53 16.5t29.5 32.5t9.5 51.5q0 39 -9.5 62t-29.5 36t-53 17t-79 4h-107v-224z" />
<glyph unicode="&#xaf;" horiz-adv-x="965" d="M174 1212v156h619v-156h-619z" />
<glyph unicode="&#xb0;" horiz-adv-x="634" d="M102 1219q0 39 13.5 76.5t40.5 66.5t67.5 47t94.5 18t94 -18t66.5 -47t40 -66.5t13.5 -76.5t-13.5 -76.5t-40 -66.5t-66.5 -47t-94 -18t-94.5 18t-67.5 47t-40.5 66.5t-13.5 76.5zM215 1219q0 -21 6.5 -40.5t19 -35t32 -25t45.5 -9.5q25 0 44 9.5t31.5 25t19 35t6.5 40.5 t-6.5 40.5t-19 35t-31.5 25t-44 9.5q-26 0 -45.5 -9.5t-32 -25t-19 -35t-6.5 -40.5z" />
<glyph unicode="&#xb1;" horiz-adv-x="1280" d="M144 20v154h992v-154h-992zM144 610v154h420v311h154v-311h418v-154h-418v-311h-154v311h-420z" />
<glyph unicode="&#xb2;" horiz-adv-x="901" d="M114 300q10 97 36 166t64.5 121.5t88.5 93t107 81.5q48 33 88.5 61.5t70.5 59t47 66.5t17 85q0 43 -7 78t-27 60q-21 28 -59.5 42.5t-88.5 14.5q-47 0 -92 -10.5t-77 -36.5q-31 -24 -46 -61.5t-10 -85.5l-86 29q-8 52 10.5 102.5t61.5 88.5q42 37 104.5 57t138.5 20 q79 0 142 -25.5t101 -70.5q33 -39 47.5 -89.5t14.5 -108.5q0 -71 -24 -122.5t-63 -91.5t-88.5 -72.5t-100.5 -65.5q-53 -35 -92.5 -65.5t-68.5 -62t-49 -67t-32 -80.5h526v-111h-654z" />
<glyph unicode="&#xb3;" horiz-adv-x="910" d="M109 510l98 37q0 -40 11.5 -72t33.5 -52q29 -27 72 -36t91 -9q60 0 105 14t71 46q23 26 30 65t7 86q0 71 -27 110.5t-72 59t-103.5 24t-121.5 4.5v98h89q45 0 85 8.5t70 28.5t48 52.5t18 80.5t-11 83t-36 57q-22 20 -54 29.5t-68 9.5q-48 0 -90 -8t-74 -31 q-24 -16 -41 -42t-26 -55l-94 30q9 48 37 86.5t67 64.5q49 32 107.5 43.5t111.5 11.5q63 0 120.5 -16.5t99.5 -45.5q50 -36 73.5 -89.5t23.5 -122.5q0 -54 -19.5 -93.5t-49 -66.5t-64.5 -43t-65 -23q39 -7 78 -25.5t69.5 -48.5t50 -72t19.5 -96q0 -78 -26.5 -141.5 t-82.5 -104.5q-48 -34 -113.5 -50.5t-142.5 -16.5q-33 0 -66.5 4t-65 13t-60 23.5t-51.5 34.5q-31 28 -47.5 68t-14.5 88z" />
<glyph unicode="&#xb4;" horiz-adv-x="846" d="M187 1212l239 378l173 -74l-318 -336z" />
<glyph unicode="&#xb5;" horiz-adv-x="1164" d="M170 -213v1224h154v-608q0 -61 4 -100.5t10 -64.5t12.5 -38t11.5 -20q6 -13 18.5 -27t36 -25t60.5 -18.5t91 -7.5q59 0 100 7t68 17.5t43 22.5t26 23q10 10 21 26t20 44.5t15 71.5t6 108v589h153v-1011h-128l-13 146q-10 -15 -32 -44t-63 -57.5t-104 -49.5t-154 -21 q-69 0 -118 17t-84 39v-216z" />
<glyph unicode="&#xb6;" horiz-adv-x="1166" d="M67 1103q0 76 28.5 138t79.5 106t122 68.5t157 24.5h616v-130h-132v-1545h-170v1545h-184v-1545h-169v1004q-78 6 -142 32.5t-110 70t-71 102t-25 129.5z" />
<glyph unicode="&#xb7;" horiz-adv-x="494" d="M141 697v221h211v-221h-211z" />
<glyph unicode="&#xb8;" horiz-adv-x="563" d="M104 -327l30 59q28 -23 60.5 -32.5t77.5 -9.5q48 0 63 18t15 45q0 35 -16.5 49t-48.5 14h-52l-50 61l34 122h98l-36 -119q27 0 58.5 -3.5t58.5 -15.5t45 -35t18 -62q0 -34 -12 -63t-34 -50t-53 -32.5t-70 -11.5q-42 0 -71.5 5.5t-50.5 14.5t-36 21t-28 25z" />
<glyph unicode="&#xb9;" horiz-adv-x="561" d="M56 1152q19 10 41 23.5t49.5 33.5t63.5 49.5t83 72.5l97 -19v-1012h-117v878q-30 -22 -53 -38.5t-44 -30t-42.5 -26.5t-46.5 -27z" />
<glyph unicode="&#xba;" horiz-adv-x="898" d="M103.184 782.101q0 68.8887 7.53223 118.044q7.53125 49.1543 18.6494 83.5986q11.1172 34.4443 24.3877 55.6133q13.2695 21.1689 24.7461 34.0859t32.2783 27.9863q20.8008 15.0693 52.7197 28.3447t74.5977 22.2451t98.627 8.96973t99.3438 -8.96973t75.3154 -22.2451 q31.9189 -13.2754 53.0791 -28.3447q21.1592 -15.0693 32.6357 -27.2686q11.4766 -12.917 24.7471 -34.0859q13.2695 -21.1689 24.7461 -54.8955t19.0078 -82.8818q7.53223 -49.1543 7.53223 -118.043t-7.53223 -119.12q-7.53125 -50.2314 -19.0078 -85.0352 q-11.4766 -34.8027 -24.7461 -56.6895q-13.2705 -21.8867 -24.7471 -34.8027q-11.4766 -12.917 -32.2773 -27.9863t-52.7207 -27.9863q-31.9189 -12.916 -75.3145 -21.5273q-43.3965 -8.61133 -100.062 -8.61133q-55.9482 0 -98.9854 8.61133t-74.5977 21.8867 t-52.0029 28.3447t-31.9189 27.9863q-11.4766 12.916 -24.7471 34.8027q-13.2695 21.8867 -24.7461 56.3311t-19.0078 83.958q-7.53223 49.5137 -7.53223 117.685zM215.798 779.23q0 -59.5605 3.94531 -99.7451q3.94434 -40.1855 10.4004 -66.7363t13.9873 -41.9785 q7.53125 -15.4287 14.7041 -24.0391q7.17285 -8.61133 20.4424 -18.2988t34.7891 -17.9395q21.5176 -8.25293 52.7197 -13.2754q31.2021 -5.02344 74.2393 -5.02344q42.3203 0 72.8047 5.38184t51.2852 13.2754q20.8018 7.89355 33.3545 17.9395 q12.5518 10.0469 19.7256 19.375q7.17188 9.3291 14.7041 24.3984q7.53125 15.0693 13.6279 41.6201q6.09766 26.5508 10.042 66.7363q3.94531 40.1846 3.94531 99.7451q0 62.4297 -4.30371 104.05t-11.1182 68.5303q-6.81348 26.9092 -14.7041 41.9785 q-7.89062 15.0703 -15.0625 23.6807q-7.89062 8.61133 -20.8018 17.9404q-12.9111 9.32812 -34.0713 16.8633q-21.1602 7.53418 -51.6445 12.5576t-72.0869 5.02344q-43.0371 0 -73.5215 -5.02344q-30.4854 -5.02344 -51.2861 -13.2754q-20.8008 -8.25293 -33.7129 -17.9395 q-12.9102 -9.6875 -20.084 -19.0166q-7.17188 -9.3291 -14.7041 -24.3984q-7.53125 -15.0693 -13.6279 -41.9785q-6.09766 -26.9102 -10.042 -68.1709q-3.94531 -41.2617 -3.94531 -102.257z" />
<glyph unicode="&#xbb;" horiz-adv-x="1100" d="M114 420l322 301l-322 299l101 92l389 -391l-389 -391zM551 420l323 301l-323 299l104 92l387 -391l-387 -391z" />
<glyph unicode="&#xbc;" horiz-adv-x="1853" d="M62 1152q19 10 41 23.5t49.5 33.5t63.5 49.5t83 72.5l97 -19v-1012h-117v878q-30 -22 -53 -38.5t-44 -30t-42.5 -26.5t-46.5 -27zM565 1l611 1643l104 -17l-612 -1644zM1086 345l414 665l137 -15v-680h142v-99h-142v-216h-117v216h-423zM1185 313h335v546z" />
<glyph unicode="&#xbd;" horiz-adv-x="1964" d="M62 1152q19 10 41 23.5t49.5 33.5t63.5 49.5t83 72.5l97 -19v-1012h-117v878q-30 -22 -53 -38.5t-44 -30t-42.5 -26.5t-46.5 -27zM553 1l611 1643l104 -17l-612 -1644zM1210 1q10 97 36 166t64.5 121.5t88.5 93t107 81.5q48 33 88.5 61.5t70.5 59t47 66.5t17 85 q0 43 -7 78t-27 60q-21 28 -59.5 42.5t-88.5 14.5q-47 0 -92 -10.5t-77 -36.5q-31 -24 -46 -61.5t-10 -85.5l-86 29q-8 52 10.5 102.5t61.5 88.5q42 37 104.5 57t138.5 20q79 0 142 -25.5t101 -70.5q33 -39 47.5 -89.5t14.5 -108.5q0 -71 -24 -122.5t-63 -91.5t-88.5 -72.5 t-100.5 -65.5q-53 -35 -92.5 -65.5t-68.5 -62t-49 -67t-32 -80.5h526v-111h-654z" />
<glyph unicode="&#xbe;" horiz-adv-x="2142" d="M98 510l98 37q0 -40 11.5 -72t33.5 -52q29 -27 72 -36t91 -9q60 0 105 14t71 46q23 26 30 65t7 86q0 71 -27 110.5t-72 59t-103.5 24t-121.5 4.5v98h89q45 0 85 8.5t70 28.5t48 52.5t18 80.5t-11 83t-36 57q-22 20 -54 29.5t-68 9.5q-48 0 -90 -8t-74 -31 q-24 -16 -41 -42t-26 -55l-94 30q9 48 37 86.5t67 64.5q49 32 107.5 43.5t111.5 11.5q63 0 120.5 -16.5t99.5 -45.5q50 -36 73.5 -89.5t23.5 -122.5q0 -54 -19.5 -93.5t-49 -66.5t-64.5 -43t-65 -23q39 -7 78 -25.5t69.5 -48.5t50 -72t19.5 -96q0 -78 -26.5 -141.5 t-82.5 -104.5q-48 -34 -113.5 -50.5t-142.5 -16.5q-33 0 -66.5 4t-65 13t-60 23.5t-51.5 34.5q-31 28 -47.5 68t-14.5 88zM861 1l611 1643l104 -17l-612 -1644zM1382 345l414 665l137 -15v-680h142v-99h-142v-216h-117v216h-423zM1481 313h335v546z" />
<glyph unicode="&#xbf;" horiz-adv-x="892" d="M824 163q-17 -32 -41 -56.5t-46 -42.5q-26 -20 -52 -37q-24 -14 -60 -25q-30 -10 -76 -18t-109 -8q-75 0 -128.5 16t-88.5 36q-41 23 -69 51q-21 26 -38 60q-14 29 -26 72t-12 99q0 46 14 86t37 75t53 65.5t61.5 57t62 50.5t55.5 45q26 22 40.5 43.5t21.5 48.5t8.5 62 t1.5 85q0 11 0.5 22t0.5 21v22l133 -1q3 -36 5 -70q2 -29 3 -60.5t1 -53.5q0 -67 -25 -114.5t-62.5 -84t-81 -67t-81 -64t-62.5 -75t-25 -100.5q0 -35 7.5 -59t15.5 -40q10 -18 22 -30q13 -12 36 -22q20 -8 51 -15.5t78 -7.5t78 4.5t50 9.5q22 6 35 14q22 11 44 27 q19 14 41.5 34t42.5 47zM613 1342v-221h-211v221h211z" />
<glyph unicode="&#xc0;" d="M18 0l544 1441h201l541 -1441h-176l-136 367h-662l-135 -367h-177zM378 502h565l-280 827zM453 1946l175 74l240 -378l-93 -32z" />
<glyph unicode="&#xc1;" d="M18 0l544 1441h201l541 -1441h-176l-136 367h-662l-135 -367h-177zM378 502h565l-280 827zM454 1642l239 378l173 -74l-318 -336z" />
<glyph unicode="&#xc2;" d="M18 0l544 1441h201l541 -1441h-176l-136 367h-662l-135 -367h-177zM378 502h565l-280 827zM410 1565l178 337h144l179 -337h-145l-103 277l-108 -277h-145z" />
<glyph unicode="&#xc3;" d="M18 0l544 1441h201l541 -1441h-176l-136 367h-662l-135 -367h-177zM378 502h565l-280 827zM390 1687q0 54 14 89.5t37.5 56.5t53 29.5t60.5 8.5q29 0 62.5 -13.5t64 -29t56 -29t37.5 -13.5q29 0 40 23t13 61h112q0 -53 -13.5 -88.5t-35 -57t-50 -30.5t-59.5 -9 q-32 0 -61.5 10t-61.5 30q-38 23 -60.5 35.5t-41.5 12.5q-29 0 -41.5 -24t-12.5 -62h-113z" />
<glyph unicode="&#xc4;" d="M18 0l544 1441h201l541 -1441h-176l-136 367h-662l-135 -367h-177zM378 502h565l-280 827zM358 1771q0 49 19 74t73 25q30 0 48.5 -6.5t28.5 -19t13.5 -31t3.5 -42.5q0 -48 -18.5 -71.5t-75.5 -23.5q-51 0 -71.5 23.5t-20.5 71.5zM776 1771q0 49 19 74t73 25 q30 0 48.5 -6.5t28.5 -19t13.5 -31t3.5 -42.5q0 -48 -18.5 -71.5t-75.5 -23.5q-51 0 -71.5 23.5t-20.5 71.5z" />
<glyph unicode="&#xc5;" d="M18 0l544 1441h201l541 -1441h-176l-136 367h-662l-135 -367h-177zM378 502h565l-280 827zM499 1746q0 35 12 63.5t34 49t52 31.5t65 11q34 0 63.5 -11.5t51 -32t33.5 -49.5t12 -64q0 -36 -12 -65t-34 -49.5t-51.5 -32t-64.5 -11.5t-64 11.5t-51 32.5t-34 50.5t-12 65.5z M578 1746q0 -38 20 -62t63 -24t63.5 24t20.5 60q0 37 -20.5 61t-63.5 24q-42 0 -62.5 -24t-20.5 -59z" />
<glyph unicode="&#xc6;" horiz-adv-x="1839" d="M-17 0l687 1441h966l-13 -139h-654l79 -481h591l11 -136h-583l92 -546h592l33 -139h-781l-62 368h-598l-177 -368h-183zM403 507h525l-123 792h-34z" />
<glyph unicode="&#xc7;" horiz-adv-x="1407" d="M120 699q0 130 16.5 228.5t41.5 169.5t53 118t51 74t64.5 59t101.5 59.5t139.5 46t178.5 18.5q97 0 171 -16t127 -38t85.5 -44t44.5 -34t28.5 -33t33 -52t31.5 -71t25 -89l-146 -75q-20 92 -51.5 150.5t-63.5 78.5q-8 5 -28.5 17t-55.5 24.5t-84.5 22t-113.5 9.5 q-72 0 -128 -11.5t-97.5 -28.5t-69.5 -36.5t-44 -34.5q-21 -20 -44 -58t-42 -98t-31.5 -144.5t-12.5 -196.5q0 -111 11.5 -193.5t28 -140.5t36 -93t34.5 -53q21 -24 54.5 -46.5t78.5 -39.5t100.5 -27.5t121.5 -10.5q67 0 120.5 10.5t93 25.5t65.5 31.5t38 28.5q6 6 17.5 21 t25 40.5t27.5 62t25 86.5l140 -79q-13 -58 -31 -101.5t-37 -74.5t-37 -50.5t-31 -29.5q-12 -10 -44 -30t-83.5 -40t-123.5 -35t-165 -15q-99 0 -177 17t-135.5 41.5t-95.5 51.5t-59 47q-36 34 -68 89.5t-56.5 129.5t-39 165.5t-14.5 196.5zM543 -327l30 59 q28 -23 60.5 -32.5t77.5 -9.5q48 0 63 18t15 45q0 35 -16.5 49t-48.5 14h-52l-50 61l34 122h98l-36 -119q27 0 58.5 -3.5t58.5 -15.5t45 -35t18 -62q0 -34 -12 -63t-34 -50t-53 -32.5t-70 -11.5q-42 0 -71.5 5.5t-50.5 14.5t-36 21t-28 25z" />
<glyph unicode="&#xc8;" horiz-adv-x="1164" d="M192 0v1441h860l-22 -142h-664v-475h610v-138h-610v-543h666l23 -143h-863zM375 1946l175 74l240 -378l-93 -32z" />
<glyph unicode="&#xc9;" horiz-adv-x="1164" d="M192 0v1441h860l-22 -142h-664v-475h610v-138h-610v-543h666l23 -143h-863zM376 1642l239 378l173 -74l-318 -336z" />
<glyph unicode="&#xca;" horiz-adv-x="1164" d="M192 0v1441h860l-22 -142h-664v-475h610v-138h-610v-543h666l23 -143h-863zM404 1565l178 337h144l179 -337h-145l-103 277l-108 -277h-145z" />
<glyph unicode="&#xcb;" horiz-adv-x="1164" d="M192 0v1441h860l-22 -142h-664v-475h610v-138h-610v-543h666l23 -143h-863zM343 1771q0 49 19 74t73 25q30 0 48.5 -6.5t28.5 -19t13.5 -31t3.5 -42.5q0 -48 -18.5 -71.5t-75.5 -23.5q-51 0 -71.5 23.5t-20.5 71.5zM761 1771q0 49 19 74t73 25q30 0 48.5 -6.5t28.5 -19 t13.5 -31t3.5 -42.5q0 -48 -18.5 -71.5t-75.5 -23.5q-51 0 -71.5 23.5t-20.5 71.5z" />
<glyph unicode="&#xcc;" horiz-adv-x="696" d="M96 1441h509l-8 -101h-153v-1239h155l-6 -101h-490l-6 101h173v1239h-168zM143 1946l175 74l240 -378l-93 -32z" />
<glyph unicode="&#xcd;" horiz-adv-x="696" d="M96 1441h509l-8 -101h-153v-1239h155l-6 -101h-490l-6 101h173v1239h-168zM146 1642l239 378l173 -74l-318 -336z" />
<glyph unicode="&#xce;" horiz-adv-x="696" d="M96 1441h509l-8 -101h-153v-1239h155l-6 -101h-490l-6 101h173v1239h-168zM100 1565l178 337h144l179 -337h-145l-103 277l-108 -277h-145z" />
<glyph unicode="&#xcf;" horiz-adv-x="696" d="M96 1441h509l-8 -101h-153v-1239h155l-6 -101h-490l-6 101h173v1239h-168zM60 1771q0 49 19 74t73 25q30 0 48.5 -6.5t28.5 -19t13.5 -31t3.5 -42.5q0 -48 -18.5 -71.5t-75.5 -23.5q-51 0 -71.5 23.5t-20.5 71.5zM478 1771q0 49 19 74t73 25q30 0 48.5 -6.5t28.5 -19 t13.5 -31t3.5 -42.5q0 -48 -18.5 -71.5t-75.5 -23.5q-51 0 -71.5 23.5t-20.5 71.5z" />
<glyph unicode="&#xd0;" horiz-adv-x="1444" d="M64 670v131h130v640h468q102 0 180 -16.5t136 -39.5t96 -48.5t60 -44.5q29 -26 63 -69.5t62.5 -111t47.5 -162t19 -222.5q0 -138 -19.5 -237.5t-49 -169.5t-64 -113t-63.5 -67q-21 -18 -59.5 -42t-95 -45.5t-133 -37t-174.5 -15.5h-474v670h-130zM368 145h297 q82 0 144 12t107 30t73.5 39t44.5 40t35.5 52t36.5 87t29 132t12 186q0 104 -11 180.5t-27 130.5t-34.5 88t-33.5 53t-45 40.5t-77.5 39.5t-114.5 30t-157 12h-279v-496h255v-131h-255v-525z" />
<glyph unicode="&#xd1;" horiz-adv-x="1561" d="M192 0v1441h217l607 -914l191 -304v1218h162v-1441h-199l-635 963l-182 287v-1250h-161zM505 1687q0 54 14 89.5t37.5 56.5t53 29.5t60.5 8.5q29 0 62.5 -13.5t64 -29t56 -29t37.5 -13.5q29 0 40 23t13 61h112q0 -53 -13.5 -88.5t-35 -57t-50 -30.5t-59.5 -9 q-32 0 -61.5 10t-61.5 30q-38 23 -60.5 35.5t-41.5 12.5q-29 0 -41.5 -24t-12.5 -62h-113z" />
<glyph unicode="&#xd2;" horiz-adv-x="1541" d="M121 727q0 130 15.5 225.5t38.5 163t50 110.5t50 69q23 25 63.5 56t101 58t143 45t189.5 18t189 -18.5t142.5 -45.5t101 -58t63.5 -56q23 -26 49.5 -68.5t49.5 -110t38 -162.5t15 -225q0 -149 -18.5 -255t-46 -178t-60 -115t-59.5 -66t-69 -49.5t-99.5 -49.5t-132 -38 t-166.5 -15q-108 0 -190.5 18t-143 45t-100.5 58t-63 57t-49.5 70t-49 114t-37.5 168.5t-15 234.5zM300 721q0 -117 10 -200t25.5 -140t33.5 -92t35 -55q16 -20 47 -42t77 -40t106 -30t135 -12t136 12t107 30.5t77 40.5t48 43q16 21 34.5 56t34 93t25.5 142t10 202 q0 112 -10 192t-25.5 135.5t-33.5 89.5t-34 54t-47 42t-77 40t-106.5 30t-135.5 12q-76 0 -137 -12t-107 -30.5t-77.5 -40.5t-47.5 -42q-17 -21 -35 -55.5t-33 -90.5t-25 -137t-10 -195zM562 1946l175 74l240 -378l-93 -32z" />
<glyph unicode="&#xd3;" horiz-adv-x="1541" d="M121 727q0 130 15.5 225.5t38.5 163t50 110.5t50 69q23 25 63.5 56t101 58t143 45t189.5 18t189 -18.5t142.5 -45.5t101 -58t63.5 -56q23 -26 49.5 -68.5t49.5 -110t38 -162.5t15 -225q0 -149 -18.5 -255t-46 -178t-60 -115t-59.5 -66t-69 -49.5t-99.5 -49.5t-132 -38 t-166.5 -15q-108 0 -190.5 18t-143 45t-100.5 58t-63 57t-49.5 70t-49 114t-37.5 168.5t-15 234.5zM300 721q0 -117 10 -200t25.5 -140t33.5 -92t35 -55q16 -20 47 -42t77 -40t106 -30t135 -12t136 12t107 30.5t77 40.5t48 43q16 21 34.5 56t34 93t25.5 142t10 202 q0 112 -10 192t-25.5 135.5t-33.5 89.5t-34 54t-47 42t-77 40t-106.5 30t-135.5 12q-76 0 -137 -12t-107 -30.5t-77.5 -40.5t-47.5 -42q-17 -21 -35 -55.5t-33 -90.5t-25 -137t-10 -195zM564 1642l239 378l173 -74l-318 -336z" />
<glyph unicode="&#xd4;" horiz-adv-x="1541" d="M121 727q0 130 15.5 225.5t38.5 163t50 110.5t50 69q23 25 63.5 56t101 58t143 45t189.5 18t189 -18.5t142.5 -45.5t101 -58t63.5 -56q23 -26 49.5 -68.5t49.5 -110t38 -162.5t15 -225q0 -149 -18.5 -255t-46 -178t-60 -115t-59.5 -66t-69 -49.5t-99.5 -49.5t-132 -38 t-166.5 -15q-108 0 -190.5 18t-143 45t-100.5 58t-63 57t-49.5 70t-49 114t-37.5 168.5t-15 234.5zM300 721q0 -117 10 -200t25.5 -140t33.5 -92t35 -55q16 -20 47 -42t77 -40t106 -30t135 -12t136 12t107 30.5t77 40.5t48 43q16 21 34.5 56t34 93t25.5 142t10 202 q0 112 -10 192t-25.5 135.5t-33.5 89.5t-34 54t-47 42t-77 40t-106.5 30t-135.5 12q-76 0 -137 -12t-107 -30.5t-77.5 -40.5t-47.5 -42q-17 -21 -35 -55.5t-33 -90.5t-25 -137t-10 -195zM519 1565l178 337h144l179 -337h-145l-103 277l-108 -277h-145z" />
<glyph unicode="&#xd5;" horiz-adv-x="1541" d="M121 727q0 130 15.5 225.5t38.5 163t50 110.5t50 69q23 25 63.5 56t101 58t143 45t189.5 18t189 -18.5t142.5 -45.5t101 -58t63.5 -56q23 -26 49.5 -68.5t49.5 -110t38 -162.5t15 -225q0 -149 -18.5 -255t-46 -178t-60 -115t-59.5 -66t-69 -49.5t-99.5 -49.5t-132 -38 t-166.5 -15q-108 0 -190.5 18t-143 45t-100.5 58t-63 57t-49.5 70t-49 114t-37.5 168.5t-15 234.5zM300 721q0 -117 10 -200t25.5 -140t33.5 -92t35 -55q16 -20 47 -42t77 -40t106 -30t135 -12t136 12t107 30.5t77 40.5t48 43q16 21 34.5 56t34 93t25.5 142t10 202 q0 112 -10 192t-25.5 135.5t-33.5 89.5t-34 54t-47 42t-77 40t-106.5 30t-135.5 12q-76 0 -137 -12t-107 -30.5t-77.5 -40.5t-47.5 -42q-17 -21 -35 -55.5t-33 -90.5t-25 -137t-10 -195zM488 1687q0 54 14 89.5t37.5 56.5t53 29.5t60.5 8.5q29 0 62.5 -13.5t64 -29t56 -29 t37.5 -13.5q29 0 40 23t13 61h112q0 -53 -13.5 -88.5t-35 -57t-50 -30.5t-59.5 -9q-32 0 -61.5 10t-61.5 30q-38 23 -60.5 35.5t-41.5 12.5q-29 0 -41.5 -24t-12.5 -62h-113z" />
<glyph unicode="&#xd6;" horiz-adv-x="1541" d="M121 727q0 130 15.5 225.5t38.5 163t50 110.5t50 69q23 25 63.5 56t101 58t143 45t189.5 18t189 -18.5t142.5 -45.5t101 -58t63.5 -56q23 -26 49.5 -68.5t49.5 -110t38 -162.5t15 -225q0 -149 -18.5 -255t-46 -178t-60 -115t-59.5 -66t-69 -49.5t-99.5 -49.5t-132 -38 t-166.5 -15q-108 0 -190.5 18t-143 45t-100.5 58t-63 57t-49.5 70t-49 114t-37.5 168.5t-15 234.5zM300 721q0 -117 10 -200t25.5 -140t33.5 -92t35 -55q16 -20 47 -42t77 -40t106 -30t135 -12t136 12t107 30.5t77 40.5t48 43q16 21 34.5 56t34 93t25.5 142t10 202 q0 112 -10 192t-25.5 135.5t-33.5 89.5t-34 54t-47 42t-77 40t-106.5 30t-135.5 12q-76 0 -137 -12t-107 -30.5t-77.5 -40.5t-47.5 -42q-17 -21 -35 -55.5t-33 -90.5t-25 -137t-10 -195zM468 1771q0 49 19 74t73 25q30 0 48.5 -6.5t28.5 -19t13.5 -31t3.5 -42.5 q0 -48 -18.5 -71.5t-75.5 -23.5q-51 0 -71.5 23.5t-20.5 71.5zM886 1771q0 49 19 74t73 25q30 0 48.5 -6.5t28.5 -19t13.5 -31t3.5 -42.5q0 -48 -18.5 -71.5t-75.5 -23.5q-51 0 -71.5 23.5t-20.5 71.5z" />
<glyph unicode="&#xd7;" horiz-adv-x="892" d="M143 428l200 201l-200 200l102 101l201 -201l200 201l103 -101l-201 -200l201 -201l-103 -100l-200 200l-201 -200z" />
<glyph unicode="&#xd8;" horiz-adv-x="1539" d="M121 727q0 130 15.5 225.5t38.5 163t50 110.5t50 69q23 25 63.5 56t101 58t143 45t189.5 18t189 -18.5t142.5 -45.5t101 -58t63.5 -56q23 -26 49.5 -68.5t49.5 -110t38 -162.5t15 -225q0 -149 -18.5 -255t-46 -178t-60 -115t-59.5 -66t-69 -49.5t-99.5 -49.5t-132 -38 t-166.5 -15q-108 0 -190.5 18t-143 45t-100.5 58t-63 57t-49.5 70t-49 114t-37.5 168.5t-15 234.5zM300 721q0 -117 10 -200t25.5 -140t33.5 -92t35 -55q16 -20 47 -42t77 -40t106 -30t135 -12t136 12t107 30.5t77 40.5t48 43q16 21 34.5 56t34 93t25.5 142t10 202 q0 112 -10 192t-25.5 135.5t-33.5 89.5t-34 54t-47 42t-77 40t-106.5 30t-135.5 12q-76 0 -137 -12t-107 -30.5t-77.5 -40.5t-47.5 -42q-17 -21 -35 -55.5t-33 -90.5t-25 -137t-10 -195zM512 -153l396 1767l125 -23l-398 -1768z" />
<glyph unicode="&#xd9;" horiz-adv-x="1511" d="M176 679v762h174v-758q0 -107 7 -187t18 -136.5t24.5 -91.5t25.5 -52t37 -37.5t65.5 -38t97.5 -29.5t134 -12q74 0 130.5 11t97 28.5t66 38t37.5 39.5q7 11 19.5 38t23.5 74.5t19.5 119.5t8.5 173v820h174v-753q0 -141 -13.5 -244t-34.5 -175t-47 -115.5t-52 -66.5 q-19 -17 -54.5 -40t-89 -44t-125.5 -36t-164 -15t-165 15t-128 36t-91.5 44t-55.5 40q-27 24 -52 67.5t-44.5 114t-31 171t-11.5 239.5zM547 1946l175 74l240 -378l-93 -32z" />
<glyph unicode="&#xda;" horiz-adv-x="1511" d="M176 679v762h174v-758q0 -107 7 -187t18 -136.5t24.5 -91.5t25.5 -52t37 -37.5t65.5 -38t97.5 -29.5t134 -12q74 0 130.5 11t97 28.5t66 38t37.5 39.5q7 11 19.5 38t23.5 74.5t19.5 119.5t8.5 173v820h174v-753q0 -141 -13.5 -244t-34.5 -175t-47 -115.5t-52 -66.5 q-19 -17 -54.5 -40t-89 -44t-125.5 -36t-164 -15t-165 15t-128 36t-91.5 44t-55.5 40q-27 24 -52 67.5t-44.5 114t-31 171t-11.5 239.5zM549 1642l239 378l173 -74l-318 -336z" />
<glyph unicode="&#xdb;" horiz-adv-x="1511" d="M176 679v762h174v-758q0 -107 7 -187t18 -136.5t24.5 -91.5t25.5 -52t37 -37.5t65.5 -38t97.5 -29.5t134 -12q74 0 130.5 11t97 28.5t66 38t37.5 39.5q7 11 19.5 38t23.5 74.5t19.5 119.5t8.5 173v820h174v-753q0 -141 -13.5 -244t-34.5 -175t-47 -115.5t-52 -66.5 q-19 -17 -54.5 -40t-89 -44t-125.5 -36t-164 -15t-165 15t-128 36t-91.5 44t-55.5 40q-27 24 -52 67.5t-44.5 114t-31 171t-11.5 239.5zM504 1565l178 337h144l179 -337h-145l-103 277l-108 -277h-145z" />
<glyph unicode="&#xdc;" horiz-adv-x="1511" d="M176 679v762h174v-758q0 -107 7 -187t18 -136.5t24.5 -91.5t25.5 -52t37 -37.5t65.5 -38t97.5 -29.5t134 -12q74 0 130.5 11t97 28.5t66 38t37.5 39.5q7 11 19.5 38t23.5 74.5t19.5 119.5t8.5 173v820h174v-753q0 -141 -13.5 -244t-34.5 -175t-47 -115.5t-52 -66.5 q-19 -17 -54.5 -40t-89 -44t-125.5 -36t-164 -15t-165 15t-128 36t-91.5 44t-55.5 40q-27 24 -52 67.5t-44.5 114t-31 171t-11.5 239.5zM453 1771q0 49 19 74t73 25q30 0 48.5 -6.5t28.5 -19t13.5 -31t3.5 -42.5q0 -48 -18.5 -71.5t-75.5 -23.5q-51 0 -71.5 23.5t-20.5 71.5 zM871 1771q0 49 19 74t73 25q30 0 48.5 -6.5t28.5 -19t13.5 -31t3.5 -42.5q0 -48 -18.5 -71.5t-75.5 -23.5q-51 0 -71.5 23.5t-20.5 71.5z" />
<glyph unicode="&#xdd;" horiz-adv-x="1142" d="M-4 1441h186q17 -32 39.5 -73t48 -87t52 -94.5t52.5 -93.5q60 -106 125 -221l73 -132l72 132q64 115 125 221q25 45 52.5 93.5t53.5 94.5t49 87t40 73h188q-27 -49 -62.5 -111.5t-75.5 -130.5t-81.5 -139t-81.5 -137q-93 -156 -194 -321v-602h-174v599q-99 165 -191 322 q-39 67 -80.5 138t-80.5 139.5t-74 130.5t-61 112zM367 1642l239 378l173 -74l-318 -336z" />
<glyph unicode="&#xde;" horiz-adv-x="1245" d="M191 0v1441h174v-210h196q105 0 183 -6.5t136.5 -19.5t99.5 -33t71 -48q22 -20 43.5 -48t39 -67t28.5 -90t11 -117t-11 -117t-29 -89t-40 -65.5t-44 -46.5q-24 -21 -58.5 -40t-84.5 -34t-118.5 -23.5t-159.5 -8.5h-263v-378h-174zM365 518h183q85 0 145.5 4t102.5 11.5 t69 19t47 27.5q15 12 29 27.5t25 40.5t17.5 61t6.5 90q0 55 -7 93.5t-19 65.5t-27.5 44.5t-32.5 30.5q-14 10 -33 20t-49 17.5t-73.5 12t-107.5 4.5h-276v-569z" />
<glyph unicode="&#xdf;" horiz-adv-x="1226" d="M157 0v1105q0 55 8.5 98.5t22 77.5t29.5 58.5t31 41.5q18 21 46.5 38t70 28.5t97 18t127.5 6.5q64 0 113.5 -4.5t86 -12t63 -19t45.5 -24.5q24 -17 48 -43t43 -62.5t31 -83.5t12 -106q0 -52 -11 -101t-34.5 -88.5t-59.5 -66t-85 -33.5q16 -4 36 -8.5t42.5 -11.5 t45.5 -18.5t44 -28.5q24 -20 44.5 -48.5t35.5 -68.5t24 -92.5t9 -119.5q0 -77 -8.5 -135t-23.5 -101.5t-34 -74.5t-40 -52q-45 -42 -125.5 -67t-180.5 -25q-60 0 -104.5 12.5t-77.5 33.5t-56 49.5t-41 61.5l70 50q20 -29 47 -43t55.5 -19.5t56.5 -5.5h50q49 0 85 6t60.5 16 t40 22t23.5 24q13 17 21.5 39t13 51.5t6 67.5t1.5 87q0 53 -4 92.5t-10.5 69t-16.5 50t-22 35.5q-12 14 -29.5 30t-41.5 29t-55.5 21.5t-72.5 8.5h-178v116h179q40 0 70 11.5t50.5 39t31 72t10.5 110.5q0 72 -11.5 116.5t-44.5 70.5q-31 24 -85 33t-142 9 q-92 0 -148.5 -11.5t-87.5 -48.5q-23 -29 -33 -76t-10 -120v-1087h-153z" />
<glyph unicode="&#xe0;" horiz-adv-x="1091" d="M99 282q0 51 6 86t14.5 59.5t18.5 39.5t18 25q13 16 39.5 35.5t71.5 37t110.5 31t156.5 17.5q45 2 79.5 2t63 1t53 3t48.5 8q0 76 -4 122.5t-11 72t-16 35.5t-19 15q-6 3 -17.5 9t-32.5 12.5t-54.5 11t-82.5 4.5q-68 0 -109 -5t-64 -11q-26 -7 -37 -15q-15 -9 -28 -27 q-11 -15 -23 -39.5t-18 -61.5l-128 48q9 46 22 77.5t31 53t41 36t51 27.5q41 19 103.5 31t156.5 12q92 0 155.5 -12t104 -29.5t61.5 -37t29 -34.5q7 -14 14.5 -36.5t13.5 -60t10 -94.5t4 -140v-380q0 -39 2 -61.5t8 -33.5t18 -14t33 -3v-114q-20 -6 -36 -8t-34 -2 q-39 5 -63.5 20.5t-37.5 36t-17.5 43.5t-4.5 43q-13 -17 -40.5 -41t-70 -46.5t-102 -38t-136.5 -15.5q-66 0 -116 9.5t-85.5 24t-58 31.5t-33.5 31q-8 10 -18 28t-19 44t-15 60t-6 77zM256 285q0 -50 8 -82t15 -44q6 -10 17 -20.5t33.5 -19.5t60 -14.5t97.5 -5.5 q70 0 124 16t91 43t56.5 62.5t19.5 74.5v220q-18 -6 -37.5 -8.5t-45.5 -4.5t-62.5 -3t-87.5 -4q-66 -5 -111.5 -13.5t-75.5 -19t-47 -22t-26 -22.5q-12 -14 -20.5 -46.5t-8.5 -86.5zM348 1516l175 74l240 -378l-93 -32z" />
<glyph unicode="&#xe1;" horiz-adv-x="1091" d="M99 282q0 51 6 86t14.5 59.5t18.5 39.5t18 25q13 16 39.5 35.5t71.5 37t110.5 31t156.5 17.5q45 2 79.5 2t63 1t53 3t48.5 8q0 76 -4 122.5t-11 72t-16 35.5t-19 15q-6 3 -17.5 9t-32.5 12.5t-54.5 11t-82.5 4.5q-68 0 -109 -5t-64 -11q-26 -7 -37 -15q-15 -9 -28 -27 q-11 -15 -23 -39.5t-18 -61.5l-128 48q9 46 22 77.5t31 53t41 36t51 27.5q41 19 103.5 31t156.5 12q92 0 155.5 -12t104 -29.5t61.5 -37t29 -34.5q7 -14 14.5 -36.5t13.5 -60t10 -94.5t4 -140v-380q0 -39 2 -61.5t8 -33.5t18 -14t33 -3v-114q-20 -6 -36 -8t-34 -2 q-39 5 -63.5 20.5t-37.5 36t-17.5 43.5t-4.5 43q-13 -17 -40.5 -41t-70 -46.5t-102 -38t-136.5 -15.5q-66 0 -116 9.5t-85.5 24t-58 31.5t-33.5 31q-8 10 -18 28t-19 44t-15 60t-6 77zM256 285q0 -50 8 -82t15 -44q6 -10 17 -20.5t33.5 -19.5t60 -14.5t97.5 -5.5 q70 0 124 16t91 43t56.5 62.5t19.5 74.5v220q-18 -6 -37.5 -8.5t-45.5 -4.5t-62.5 -3t-87.5 -4q-66 -5 -111.5 -13.5t-75.5 -19t-47 -22t-26 -22.5q-12 -14 -20.5 -46.5t-8.5 -86.5zM349 1212l239 378l173 -74l-318 -336z" />
<glyph unicode="&#xe2;" horiz-adv-x="1091" d="M99 282q0 51 6 86t14.5 59.5t18.5 39.5t18 25q13 16 39.5 35.5t71.5 37t110.5 31t156.5 17.5q45 2 79.5 2t63 1t53 3t48.5 8q0 76 -4 122.5t-11 72t-16 35.5t-19 15q-6 3 -17.5 9t-32.5 12.5t-54.5 11t-82.5 4.5q-68 0 -109 -5t-64 -11q-26 -7 -37 -15q-15 -9 -28 -27 q-11 -15 -23 -39.5t-18 -61.5l-128 48q9 46 22 77.5t31 53t41 36t51 27.5q41 19 103.5 31t156.5 12q92 0 155.5 -12t104 -29.5t61.5 -37t29 -34.5q7 -14 14.5 -36.5t13.5 -60t10 -94.5t4 -140v-380q0 -39 2 -61.5t8 -33.5t18 -14t33 -3v-114q-20 -6 -36 -8t-34 -2 q-39 5 -63.5 20.5t-37.5 36t-17.5 43.5t-4.5 43q-13 -17 -40.5 -41t-70 -46.5t-102 -38t-136.5 -15.5q-66 0 -116 9.5t-85.5 24t-58 31.5t-33.5 31q-8 10 -18 28t-19 44t-15 60t-6 77zM256 285q0 -50 8 -82t15 -44q6 -10 17 -20.5t33.5 -19.5t60 -14.5t97.5 -5.5 q70 0 124 16t91 43t56.5 62.5t19.5 74.5v220q-18 -6 -37.5 -8.5t-45.5 -4.5t-62.5 -3t-87.5 -4q-66 -5 -111.5 -13.5t-75.5 -19t-47 -22t-26 -22.5q-12 -14 -20.5 -46.5t-8.5 -86.5zM305 1135l178 337h144l179 -337h-145l-103 277l-108 -277h-145z" />
<glyph unicode="&#xe3;" horiz-adv-x="1091" d="M99 282q0 51 6 86t14.5 59.5t18.5 39.5t18 25q13 16 39.5 35.5t71.5 37t110.5 31t156.5 17.5q45 2 79.5 2t63 1t53 3t48.5 8q0 76 -4 122.5t-11 72t-16 35.5t-19 15q-6 3 -17.5 9t-32.5 12.5t-54.5 11t-82.5 4.5q-68 0 -109 -5t-64 -11q-26 -7 -37 -15q-15 -9 -28 -27 q-11 -15 -23 -39.5t-18 -61.5l-128 48q9 46 22 77.5t31 53t41 36t51 27.5q41 19 103.5 31t156.5 12q92 0 155.5 -12t104 -29.5t61.5 -37t29 -34.5q7 -14 14.5 -36.5t13.5 -60t10 -94.5t4 -140v-380q0 -39 2 -61.5t8 -33.5t18 -14t33 -3v-114q-20 -6 -36 -8t-34 -2 q-39 5 -63.5 20.5t-37.5 36t-17.5 43.5t-4.5 43q-13 -17 -40.5 -41t-70 -46.5t-102 -38t-136.5 -15.5q-66 0 -116 9.5t-85.5 24t-58 31.5t-33.5 31q-8 10 -18 28t-19 44t-15 60t-6 77zM256 285q0 -50 8 -82t15 -44q6 -10 17 -20.5t33.5 -19.5t60 -14.5t97.5 -5.5 q70 0 124 16t91 43t56.5 62.5t19.5 74.5v220q-18 -6 -37.5 -8.5t-45.5 -4.5t-62.5 -3t-87.5 -4q-66 -5 -111.5 -13.5t-75.5 -19t-47 -22t-26 -22.5q-12 -14 -20.5 -46.5t-8.5 -86.5zM280 1257q0 54 14 89.5t37.5 56.5t53 29.5t60.5 8.5q29 0 62.5 -13.5t64 -29t56 -29 t37.5 -13.5q29 0 40 23t13 61h112q0 -53 -13.5 -88.5t-35 -57t-50 -30.5t-59.5 -9q-32 0 -61.5 10t-61.5 30q-38 23 -60.5 35.5t-41.5 12.5q-29 0 -41.5 -24t-12.5 -62h-113z" />
<glyph unicode="&#xe4;" horiz-adv-x="1091" d="M99 282q0 51 6 86t14.5 59.5t18.5 39.5t18 25q13 16 39.5 35.5t71.5 37t110.5 31t156.5 17.5q45 2 79.5 2t63 1t53 3t48.5 8q0 76 -4 122.5t-11 72t-16 35.5t-19 15q-6 3 -17.5 9t-32.5 12.5t-54.5 11t-82.5 4.5q-68 0 -109 -5t-64 -11q-26 -7 -37 -15q-15 -9 -28 -27 q-11 -15 -23 -39.5t-18 -61.5l-128 48q9 46 22 77.5t31 53t41 36t51 27.5q41 19 103.5 31t156.5 12q92 0 155.5 -12t104 -29.5t61.5 -37t29 -34.5q7 -14 14.5 -36.5t13.5 -60t10 -94.5t4 -140v-380q0 -39 2 -61.5t8 -33.5t18 -14t33 -3v-114q-20 -6 -36 -8t-34 -2 q-39 5 -63.5 20.5t-37.5 36t-17.5 43.5t-4.5 43q-13 -17 -40.5 -41t-70 -46.5t-102 -38t-136.5 -15.5q-66 0 -116 9.5t-85.5 24t-58 31.5t-33.5 31q-8 10 -18 28t-19 44t-15 60t-6 77zM256 285q0 -50 8 -82t15 -44q6 -10 17 -20.5t33.5 -19.5t60 -14.5t97.5 -5.5 q70 0 124 16t91 43t56.5 62.5t19.5 74.5v220q-18 -6 -37.5 -8.5t-45.5 -4.5t-62.5 -3t-87.5 -4q-66 -5 -111.5 -13.5t-75.5 -19t-47 -22t-26 -22.5q-12 -14 -20.5 -46.5t-8.5 -86.5zM253 1341q0 49 19 74t73 25q30 0 48.5 -6.5t28.5 -19t13.5 -31t3.5 -42.5 q0 -48 -18.5 -71.5t-75.5 -23.5q-51 0 -71.5 23.5t-20.5 71.5zM671 1341q0 49 19 74t73 25q30 0 48.5 -6.5t28.5 -19t13.5 -31t3.5 -42.5q0 -48 -18.5 -71.5t-75.5 -23.5q-51 0 -71.5 23.5t-20.5 71.5z" />
<glyph unicode="&#xe5;" horiz-adv-x="1091" d="M99 282q0 51 6 86t14.5 59.5t18.5 39.5t18 25q13 16 39.5 35.5t71.5 37t110.5 31t156.5 17.5q45 2 79.5 2t63 1t53 3t48.5 8q0 76 -4 122.5t-11 72t-16 35.5t-19 15q-6 3 -17.5 9t-32.5 12.5t-54.5 11t-82.5 4.5q-68 0 -109 -5t-64 -11q-26 -7 -37 -15q-15 -9 -28 -27 q-11 -15 -23 -39.5t-18 -61.5l-128 48q9 46 22 77.5t31 53t41 36t51 27.5q41 19 103.5 31t156.5 12q92 0 155.5 -12t104 -29.5t61.5 -37t29 -34.5q7 -14 14.5 -36.5t13.5 -60t10 -94.5t4 -140v-380q0 -39 2 -61.5t8 -33.5t18 -14t33 -3v-114q-20 -6 -36 -8t-34 -2 q-39 5 -63.5 20.5t-37.5 36t-17.5 43.5t-4.5 43q-13 -17 -40.5 -41t-70 -46.5t-102 -38t-136.5 -15.5q-66 0 -116 9.5t-85.5 24t-58 31.5t-33.5 31q-8 10 -18 28t-19 44t-15 60t-6 77zM256 285q0 -50 8 -82t15 -44q6 -10 17 -20.5t33.5 -19.5t60 -14.5t97.5 -5.5 q70 0 124 16t91 43t56.5 62.5t19.5 74.5v220q-18 -6 -37.5 -8.5t-45.5 -4.5t-62.5 -3t-87.5 -4q-66 -5 -111.5 -13.5t-75.5 -19t-47 -22t-26 -22.5q-12 -14 -20.5 -46.5t-8.5 -86.5zM394 1316q0 35 12 63.5t34 49t52 31.5t65 11q34 0 63.5 -11.5t51 -32t33.5 -49.5t12 -64 q0 -36 -12 -65t-34 -49.5t-51.5 -32t-64.5 -11.5t-64 11.5t-51 32.5t-34 50.5t-12 65.5zM473 1316q0 -38 20 -62t63 -24t63.5 24t20.5 60q0 37 -20.5 61t-63.5 24q-42 0 -62.5 -24t-20.5 -59z" />
<glyph unicode="&#xe6;" horiz-adv-x="1731" d="M99 282q0 51 6 86t14.5 59.5t18.5 39.5t18 25q13 16 39.5 35.5t71.5 37t110.5 31t156.5 17.5q45 2 79.5 2t63 1t53 3t48.5 8q0 76 -4 122.5t-11 72t-16 35.5t-19 15q-6 3 -17.5 9t-32.5 12.5t-54.5 11t-82.5 4.5q-68 0 -109 -5t-64 -11q-26 -7 -37 -15q-15 -9 -28 -27 q-11 -15 -23 -39.5t-18 -61.5l-128 48q9 46 22 77.5t31 53t41 36t51 27.5q41 19 103.5 31t156.5 12q87 0 147 -14.5t98 -35t58 -43.5t27 -40l2 -6l1 1q16 21 43 45t69 44.5t99.5 34t134.5 13.5q79 0 135 -13.5t94 -34t61.5 -44t37.5 -44.5q11 -15 24 -39.5t25 -61.5t20 -88 t8 -118q0 -5 -0.5 -20.5t-0.5 -33t-0.5 -34t-0.5 -23.5h-687q0 -111 19 -180t42 -107q27 -45 62 -64q14 -9 37 -16q20 -6 52 -11t80 -5q46 0 78 5t54 12.5t35.5 15t21.5 13.5q27 18 44 55.5t30 108.5l124 -34q-8 -48 -18 -80.5t-20 -53t-19.5 -31.5t-15.5 -18 q-15 -19 -40.5 -39t-63.5 -37t-91 -28t-123 -11q-57 0 -112.5 8.5t-104.5 28.5t-87 53t-60 82q-51 -78 -153.5 -125t-254.5 -47q-66 0 -116 10t-85.5 25t-58 32t-33.5 31q-8 10 -18 28t-19 44t-15 60t-6 77zM256 285q0 -50 7.5 -82t15.5 -44q6 -10 17 -20.5t33.5 -19.5 t60 -14.5t97.5 -5.5q70 0 124 16t91 43t56.5 62.5t19.5 74.5v210v10q-18 -6 -37.5 -8.5t-45.5 -4.5t-62.5 -3t-87.5 -4q-66 -5 -111.5 -13.5t-75.5 -19t-47 -22t-26 -22.5q-12 -14 -20.5 -46.5t-8.5 -86.5zM936 594h453l79 -6q-4 71 -13 120t-20.5 81t-24 49t-23.5 25 q-10 7 -24.5 15.5t-35.5 16t-49 12t-64 4.5q-48 0 -83.5 -6.5t-60.5 -16.5t-40.5 -21t-24.5 -21t-20 -27.5t-21 -47.5t-18 -73t-10 -104z" />
<glyph unicode="&#xe7;" horiz-adv-x="1071" d="M112 509q0 95 10.5 163t26.5 115t34.5 76.5t34.5 47.5t45 39.5t73.5 40.5t104.5 31.5t138 12.5q73 0 126.5 -11t91 -26t60.5 -31.5t35 -28.5q10 -10 21.5 -25t22.5 -38t20.5 -56t14.5 -80l-126 -35q-6 36 -12 60.5t-12 40.5t-12 25.5t-11 15.5q-10 11 -27 22.5 t-43.5 20.5t-64 15t-88.5 6q-62 0 -104.5 -7.5t-71 -19t-45.5 -25.5t-27 -27t-20.5 -33.5t-19 -56.5t-14 -92.5t-5.5 -141.5q0 -88 6 -146t15 -95t20 -57.5t22 -33.5q10 -14 27.5 -27.5t46.5 -25t71.5 -18.5t103.5 -7q52 0 90 6t65 15.5t44 21t28 22.5q6 6 12 15.5t12 25.5 t12.5 40.5t12.5 60.5l121 -35q-5 -46 -13.5 -78.5t-20 -55.5t-23.5 -37.5t-22 -24.5q-12 -12 -35.5 -28.5t-62 -31.5t-93 -25.5t-129.5 -10.5q-78 0 -138 12.5t-104.5 31t-73.5 40t-45 39.5t-34.5 48t-34 78t-26 117t-10.5 166zM358 -327l30 59q28 -23 60.5 -32.5t77.5 -9.5 q48 0 63 18t15 45q0 35 -16.5 49t-48.5 14h-52l-50 61l34 122h98l-36 -119q27 0 58.5 -3.5t58.5 -15.5t45 -35t18 -62q0 -34 -12 -63t-34 -50t-53 -32.5t-70 -11.5q-42 0 -71.5 5.5t-50.5 14.5t-36 21t-28 25z" />
<glyph unicode="&#xe8;" horiz-adv-x="1096" d="M110 505q0 99 12 169t29.5 118t37 77.5t35.5 47.5q15 18 42 38.5t67.5 38t96.5 29t130 11.5q83 0 143 -13.5t101.5 -34t67 -44t40.5 -44.5q11 -15 24 -39.5t25 -61.5t20 -88t8 -118q0 -5 -0.5 -20.5t-0.5 -33t-0.5 -34t-0.5 -23.5h-721q0 -111 19 -180t42 -107 q27 -45 62 -64q14 -9 39 -16q21 -6 55 -11t85 -5q50 0 86.5 5t61.5 12.5t40.5 15t24.5 13.5q27 18 44 55.5t30 108.5l124 -34q-8 -48 -18 -80.5t-20 -53t-19.5 -31.5t-15.5 -18q-16 -19 -43.5 -39t-68.5 -36.5t-98 -27t-132 -10.5q-78 0 -135.5 10.5t-98 27t-66.5 36.5 t-42 38q-15 18 -34.5 48.5t-37 79.5t-29 119.5t-11.5 168.5zM268 594h333h154l79 -6q-4 71 -13 120t-20.5 81t-24 49t-23.5 25q-22 15 -69 31.5t-128 16.5q-51 0 -88 -6.5t-63 -16.5t-42.5 -21t-25.5 -21t-20 -27.5t-21 -47.5t-18 -73t-10 -104zM340 1516l175 74l240 -378 l-93 -32z" />
<glyph unicode="&#xe9;" horiz-adv-x="1096" d="M110 505q0 99 12 169t29.5 118t37 77.5t35.5 47.5q15 18 42 38.5t67.5 38t96.5 29t130 11.5q83 0 143 -13.5t101.5 -34t67 -44t40.5 -44.5q11 -15 24 -39.5t25 -61.5t20 -88t8 -118q0 -5 -0.5 -20.5t-0.5 -33t-0.5 -34t-0.5 -23.5h-721q0 -111 19 -180t42 -107 q27 -45 62 -64q14 -9 39 -16q21 -6 55 -11t85 -5q50 0 86.5 5t61.5 12.5t40.5 15t24.5 13.5q27 18 44 55.5t30 108.5l124 -34q-8 -48 -18 -80.5t-20 -53t-19.5 -31.5t-15.5 -18q-16 -19 -43.5 -39t-68.5 -36.5t-98 -27t-132 -10.5q-78 0 -135.5 10.5t-98 27t-66.5 36.5 t-42 38q-15 18 -34.5 48.5t-37 79.5t-29 119.5t-11.5 168.5zM268 594h333h154l79 -6q-4 71 -13 120t-20.5 81t-24 49t-23.5 25q-22 15 -69 31.5t-128 16.5q-51 0 -88 -6.5t-63 -16.5t-42.5 -21t-25.5 -21t-20 -27.5t-21 -47.5t-18 -73t-10 -104zM341 1212l239 378l173 -74 l-318 -336z" />
<glyph unicode="&#xea;" horiz-adv-x="1096" d="M110 505q0 99 12 169t29.5 118t37 77.5t35.5 47.5q15 18 42 38.5t67.5 38t96.5 29t130 11.5q83 0 143 -13.5t101.5 -34t67 -44t40.5 -44.5q11 -15 24 -39.5t25 -61.5t20 -88t8 -118q0 -5 -0.5 -20.5t-0.5 -33t-0.5 -34t-0.5 -23.5h-721q0 -111 19 -180t42 -107 q27 -45 62 -64q14 -9 39 -16q21 -6 55 -11t85 -5q50 0 86.5 5t61.5 12.5t40.5 15t24.5 13.5q27 18 44 55.5t30 108.5l124 -34q-8 -48 -18 -80.5t-20 -53t-19.5 -31.5t-15.5 -18q-16 -19 -43.5 -39t-68.5 -36.5t-98 -27t-132 -10.5q-78 0 -135.5 10.5t-98 27t-66.5 36.5 t-42 38q-15 18 -34.5 48.5t-37 79.5t-29 119.5t-11.5 168.5zM268 594h333h154l79 -6q-4 71 -13 120t-20.5 81t-24 49t-23.5 25q-22 15 -69 31.5t-128 16.5q-51 0 -88 -6.5t-63 -16.5t-42.5 -21t-25.5 -21t-20 -27.5t-21 -47.5t-18 -73t-10 -104zM297 1135l178 337h144 l179 -337h-145l-103 277l-108 -277h-145z" />
<glyph unicode="&#xeb;" horiz-adv-x="1096" d="M110 505q0 99 12 169t29.5 118t37 77.5t35.5 47.5q15 18 42 38.5t67.5 38t96.5 29t130 11.5q83 0 143 -13.5t101.5 -34t67 -44t40.5 -44.5q11 -15 24 -39.5t25 -61.5t20 -88t8 -118q0 -5 -0.5 -20.5t-0.5 -33t-0.5 -34t-0.5 -23.5h-721q0 -111 19 -180t42 -107 q27 -45 62 -64q14 -9 39 -16q21 -6 55 -11t85 -5q50 0 86.5 5t61.5 12.5t40.5 15t24.5 13.5q27 18 44 55.5t30 108.5l124 -34q-8 -48 -18 -80.5t-20 -53t-19.5 -31.5t-15.5 -18q-16 -19 -43.5 -39t-68.5 -36.5t-98 -27t-132 -10.5q-78 0 -135.5 10.5t-98 27t-66.5 36.5 t-42 38q-15 18 -34.5 48.5t-37 79.5t-29 119.5t-11.5 168.5zM268 594h333h154l79 -6q-4 71 -13 120t-20.5 81t-24 49t-23.5 25q-22 15 -69 31.5t-128 16.5q-51 0 -88 -6.5t-63 -16.5t-42.5 -21t-25.5 -21t-20 -27.5t-21 -47.5t-18 -73t-10 -104zM245 1341q0 49 19 74t73 25 q30 0 48.5 -6.5t28.5 -19t13.5 -31t3.5 -42.5q0 -48 -18.5 -71.5t-75.5 -23.5q-51 0 -71.5 23.5t-20.5 71.5zM663 1341q0 49 19 74t73 25q30 0 48.5 -6.5t28.5 -19t13.5 -31t3.5 -42.5q0 -48 -18.5 -71.5t-75.5 -23.5q-51 0 -71.5 23.5t-20.5 71.5z" />
<glyph unicode="&#xec;" horiz-adv-x="470" d="M158 0v1011h154v-1011h-154zM29 1516l175 74l240 -378l-93 -32z" />
<glyph unicode="&#xed;" horiz-adv-x="470" d="M158 0v1011h154v-1011h-154zM30 1212l239 378l173 -74l-318 -336z" />
<glyph unicode="&#xee;" horiz-adv-x="470" d="M158 0v1011h154v-1011h-154zM-14 1135l178 337h144l179 -337h-145l-103 277l-108 -277h-145z" />
<glyph unicode="&#xef;" horiz-adv-x="470" d="M158 0v1011h154v-1011h-154zM-64 1148q0 49 19 74t73 25q30 0 48.5 -6.5t28.5 -19t13.5 -31t3.5 -42.5q0 -48 -18.5 -71.5t-75.5 -23.5q-51 0 -71.5 23.5t-20.5 71.5zM354 1148q0 49 19 74t73 25q30 0 48.5 -6.5t28.5 -19t13.5 -31t3.5 -42.5q0 -48 -18.5 -71.5 t-75.5 -23.5q-51 0 -71.5 23.5t-20.5 71.5z" />
<glyph unicode="&#xf0;" horiz-adv-x="1119" d="M87 428q0 100 22.5 170t50.5 115q32 52 73 86q25 19 62 35q32 13 80.5 24t117.5 11q91 0 178.5 -36t154.5 -112q0 74 -7.5 132t-18.5 102t-23.5 74.5t-22.5 49.5l-112 -82l-63 91l98 76q-29 19 -72.5 34.5t-103.5 15.5q-66 0 -117.5 -15.5t-86.5 -34.5q-41 -22 -73 -50 l-70 112q29 18 64 40.5t77.5 42t95 32.5t116.5 13q54 0 99 -9.5t82 -24t64.5 -31.5t46.5 -31l114 88l71 -100l-106 -77q18 -30 38.5 -78t38.5 -118t30 -162.5t12 -211.5q0 -77 -7 -141.5t-19 -117t-27 -93.5t-31 -72q-37 -73 -83 -114q-31 -27 -74 -47q-37 -17 -91.5 -31.5 t-128.5 -14.5q-90 0 -153 19.5t-105 43.5q-48 28 -80 64q-31 39 -56 89q-21 43 -38 104.5t-17 139.5zM251 427q0 -72 7.5 -117t16.5 -71q11 -31 24 -46q19 -27 52 -47q28 -18 72.5 -32.5t110.5 -14.5q53 0 90.5 9.5t61.5 21.5q28 13 46 31q26 23 46 70q17 40 32 107.5 t15 172.5q-18 52 -50 94t-73 71.5t-89 45.5t-99 16q-48 0 -83.5 -10t-59.5 -21q-28 -14 -48 -31q-20 -19 -36 -52q-14 -29 -25 -77t-11 -120z" />
<glyph unicode="&#xf1;" horiz-adv-x="1160" d="M158 0v1011h127l12 -148q18 26 47 56t72 55.5t102 42.5t138 17q89 0 146.5 -20t90.5 -43q39 -28 59 -63q16 -25 29 -68q11 -37 20.5 -98.5t9.5 -154.5v-587h-154v617q0 60 -5 98.5t-11.5 62.5t-14 36.5t-11.5 19.5q-8 12 -21 25.5t-37 24t-60 17.5t-90 7q-63 0 -106.5 -8 t-73 -20.5t-46 -27.5t-25.5 -29t-17 -34.5t-14 -53t-9.5 -78.5t-3.5 -112v-545h-154zM307 1257q0 54 14 89.5t37.5 56.5t53 29.5t60.5 8.5q29 0 62.5 -13.5t64 -29t56 -29t37.5 -13.5q29 0 40 23t13 61h112q0 -53 -13.5 -88.5t-35 -57t-50 -30.5t-59.5 -9q-32 0 -61.5 10 t-61.5 30q-38 23 -60.5 35.5t-41.5 12.5q-29 0 -41.5 -24t-12.5 -62h-113z" />
<glyph unicode="&#xf2;" horiz-adv-x="1153" d="M109 506q0 96 10.5 164.5t26 116.5t34 77.5t34.5 47.5t45 39t73.5 39.5t104 31t137.5 12.5t138.5 -12.5t105 -31t74 -39.5t45.5 -38q16 -18 34.5 -47.5t34.5 -76.5t26.5 -115.5t10.5 -164.5t-10.5 -166t-26.5 -118.5t-34.5 -79t-34.5 -48.5t-45 -39t-73.5 -39t-105 -30 t-139.5 -12q-78 0 -138 12t-104 30.5t-72.5 39.5t-44.5 39t-34.5 48.5t-34.5 78.5t-26.5 117t-10.5 164zM266 502q0 -83 5.5 -139t14.5 -93t19.5 -58.5t20.5 -33.5t28.5 -25.5t48.5 -25t73.5 -18.5t103.5 -7q59 0 101.5 7.5t71.5 18.5t46.5 25t27.5 27t20.5 34t19 58t14 93 t5.5 139q0 87 -6 145t-15.5 95.5t-20.5 58.5t-21 33q-11 12 -29 25t-47.5 23.5t-72 17.5t-100.5 7q-60 0 -102.5 -7t-71.5 -18.5t-47 -25t-28 -26.5t-20.5 -34t-19 -58.5t-14 -95t-5.5 -142.5zM368 1516l175 74l240 -378l-93 -32z" />
<glyph unicode="&#xf3;" horiz-adv-x="1153" d="M109 506q0 96 10.5 164.5t26 116.5t34 77.5t34.5 47.5t45 39t73.5 39.5t104 31t137.5 12.5t138.5 -12.5t105 -31t74 -39.5t45.5 -38q16 -18 34.5 -47.5t34.5 -76.5t26.5 -115.5t10.5 -164.5t-10.5 -166t-26.5 -118.5t-34.5 -79t-34.5 -48.5t-45 -39t-73.5 -39t-105 -30 t-139.5 -12q-78 0 -138 12t-104 30.5t-72.5 39.5t-44.5 39t-34.5 48.5t-34.5 78.5t-26.5 117t-10.5 164zM266 502q0 -83 5.5 -139t14.5 -93t19.5 -58.5t20.5 -33.5t28.5 -25.5t48.5 -25t73.5 -18.5t103.5 -7q59 0 101.5 7.5t71.5 18.5t46.5 25t27.5 27t20.5 34t19 58t14 93 t5.5 139q0 87 -6 145t-15.5 95.5t-20.5 58.5t-21 33q-11 12 -29 25t-47.5 23.5t-72 17.5t-100.5 7q-60 0 -102.5 -7t-71.5 -18.5t-47 -25t-28 -26.5t-20.5 -34t-19 -58.5t-14 -95t-5.5 -142.5zM370 1212l239 378l173 -74l-318 -336z" />
<glyph unicode="&#xf4;" horiz-adv-x="1153" d="M109 506q0 96 10.5 164.5t26 116.5t34 77.5t34.5 47.5t45 39t73.5 39.5t104 31t137.5 12.5t138.5 -12.5t105 -31t74 -39.5t45.5 -38q16 -18 34.5 -47.5t34.5 -76.5t26.5 -115.5t10.5 -164.5t-10.5 -166t-26.5 -118.5t-34.5 -79t-34.5 -48.5t-45 -39t-73.5 -39t-105 -30 t-139.5 -12q-78 0 -138 12t-104 30.5t-72.5 39.5t-44.5 39t-34.5 48.5t-34.5 78.5t-26.5 117t-10.5 164zM266 502q0 -83 5.5 -139t14.5 -93t19.5 -58.5t20.5 -33.5t28.5 -25.5t48.5 -25t73.5 -18.5t103.5 -7q59 0 101.5 7.5t71.5 18.5t46.5 25t27.5 27t20.5 34t19 58t14 93 t5.5 139q0 87 -6 145t-15.5 95.5t-20.5 58.5t-21 33q-11 12 -29 25t-47.5 23.5t-72 17.5t-100.5 7q-60 0 -102.5 -7t-71.5 -18.5t-47 -25t-28 -26.5t-20.5 -34t-19 -58.5t-14 -95t-5.5 -142.5zM325 1135l178 337h144l179 -337h-145l-103 277l-108 -277h-145z" />
<glyph unicode="&#xf5;" horiz-adv-x="1153" d="M109 506q0 96 10.5 164.5t26 116.5t34 77.5t34.5 47.5t45 39t73.5 39.5t104 31t137.5 12.5t138.5 -12.5t105 -31t74 -39.5t45.5 -38q16 -18 34.5 -47.5t34.5 -76.5t26.5 -115.5t10.5 -164.5t-10.5 -166t-26.5 -118.5t-34.5 -79t-34.5 -48.5t-45 -39t-73.5 -39t-105 -30 t-139.5 -12q-78 0 -138 12t-104 30.5t-72.5 39.5t-44.5 39t-34.5 48.5t-34.5 78.5t-26.5 117t-10.5 164zM266 502q0 -83 5.5 -139t14.5 -93t19.5 -58.5t20.5 -33.5t28.5 -25.5t48.5 -25t73.5 -18.5t103.5 -7q59 0 101.5 7.5t71.5 18.5t46.5 25t27.5 27t20.5 34t19 58t14 93 t5.5 139q0 87 -6 145t-15.5 95.5t-20.5 58.5t-21 33q-11 12 -29 25t-47.5 23.5t-72 17.5t-100.5 7q-60 0 -102.5 -7t-71.5 -18.5t-47 -25t-28 -26.5t-20.5 -34t-19 -58.5t-14 -95t-5.5 -142.5zM301 1257q0 54 14 89.5t37.5 56.5t53 29.5t60.5 8.5q29 0 62.5 -13.5t64 -29 t56 -29t37.5 -13.5q29 0 40 23t13 61h112q0 -53 -13.5 -88.5t-35 -57t-50 -30.5t-59.5 -9q-32 0 -61.5 10t-61.5 30q-38 23 -60.5 35.5t-41.5 12.5q-29 0 -41.5 -24t-12.5 -62h-113z" />
<glyph unicode="&#xf6;" horiz-adv-x="1153" d="M109 506q0 96 10.5 164.5t26 116.5t34 77.5t34.5 47.5t45 39t73.5 39.5t104 31t137.5 12.5t138.5 -12.5t105 -31t74 -39.5t45.5 -38q16 -18 34.5 -47.5t34.5 -76.5t26.5 -115.5t10.5 -164.5t-10.5 -166t-26.5 -118.5t-34.5 -79t-34.5 -48.5t-45 -39t-73.5 -39t-105 -30 t-139.5 -12q-78 0 -138 12t-104 30.5t-72.5 39.5t-44.5 39t-34.5 48.5t-34.5 78.5t-26.5 117t-10.5 164zM266 502q0 -83 5.5 -139t14.5 -93t19.5 -58.5t20.5 -33.5t28.5 -25.5t48.5 -25t73.5 -18.5t103.5 -7q59 0 101.5 7.5t71.5 18.5t46.5 25t27.5 27t20.5 34t19 58t14 93 t5.5 139q0 87 -6 145t-15.5 95.5t-20.5 58.5t-21 33q-11 12 -29 25t-47.5 23.5t-72 17.5t-100.5 7q-60 0 -102.5 -7t-71.5 -18.5t-47 -25t-28 -26.5t-20.5 -34t-19 -58.5t-14 -95t-5.5 -142.5zM274 1341q0 49 19 74t73 25q30 0 48.5 -6.5t28.5 -19t13.5 -31t3.5 -42.5 q0 -48 -18.5 -71.5t-75.5 -23.5q-51 0 -71.5 23.5t-20.5 71.5zM692 1341q0 49 19 74t73 25q30 0 48.5 -6.5t28.5 -19t13.5 -31t3.5 -42.5q0 -48 -18.5 -71.5t-75.5 -23.5q-51 0 -71.5 23.5t-20.5 71.5z" />
<glyph unicode="&#xf7;" horiz-adv-x="1006" d="M400 283v221h211v-221h-211zM400 752v221h211v-221h-211zM128 573v109h753v-109h-753z" />
<glyph unicode="&#xf8;" horiz-adv-x="1153" d="M109 506q0 96 10.5 164.5t26 116.5t34 77.5t34.5 47.5t45 39t73.5 39.5t104 31t137.5 12.5q36 0 68 -3l32 141l115 -17l-33 -144q72 -20 116 -47.5t65 -50.5q16 -18 34.5 -47.5t34.5 -76.5t26.5 -115.5t10.5 -164.5t-10.5 -166t-26.5 -118.5t-34.5 -79t-34.5 -48.5 t-45 -39t-73.5 -39.5t-105 -31t-139.5 -12.5q-14 0 -26.5 0.5t-24.5 1.5l-28 -127l-113 18l28 125q-79 19 -126 49t-69 56q-16 18 -34.5 48.5t-34.5 78.5t-26.5 117t-10.5 164zM266 502q0 -83 5.5 -139t14.5 -93t19.5 -58.5t20.5 -33.5q13 -16 38.5 -33t72.5 -28l178 791 q-10 0 -20 0.5t-21 0.5q-60 0 -102.5 -7t-71.5 -18.5t-47 -25t-28 -26.5t-20.5 -34t-19 -58.5t-14 -95t-5.5 -142.5zM552 102h28q59 0 101.5 7.5t71.5 18.5t46.5 25t27.5 27t20.5 34t19 58t14 93t5.5 139q0 87 -6 145t-15.5 95.5t-20.5 58.5t-21 33q-12 14 -34 28.5 t-60 25.5z" />
<glyph unicode="&#xf9;" horiz-adv-x="1157" d="M149 376v635h154v-608q0 -61 4 -100.5t10 -64.5t12.5 -38t11.5 -20q6 -13 18.5 -27t36 -25t60.5 -18.5t91 -7.5q59 0 100 7t68 17.5t43 22.5t26 23q10 10 21 26t20 44.5t15 71.5t6 108v589h153v-1011h-128l-13 146q-10 -15 -32 -43.5t-63 -56.5t-104 -48.5t-154 -20.5 q-66 0 -114.5 9.5t-83 23.5t-55.5 29.5t-32 26.5t-23.5 31t-23 55t-17.5 89.5t-7 134.5zM368 1516l175 74l240 -378l-93 -32z" />
<glyph unicode="&#xfa;" horiz-adv-x="1157" d="M149 376v635h154v-608q0 -61 4 -100.5t10 -64.5t12.5 -38t11.5 -20q6 -13 18.5 -27t36 -25t60.5 -18.5t91 -7.5q59 0 100 7t68 17.5t43 22.5t26 23q10 10 21 26t20 44.5t15 71.5t6 108v589h153v-1011h-128l-13 146q-10 -15 -32 -43.5t-63 -56.5t-104 -48.5t-154 -20.5 q-66 0 -114.5 9.5t-83 23.5t-55.5 29.5t-32 26.5t-23.5 31t-23 55t-17.5 89.5t-7 134.5zM369 1212l239 378l173 -74l-318 -336z" />
<glyph unicode="&#xfb;" horiz-adv-x="1157" d="M149 376v635h154v-608q0 -61 4 -100.5t10 -64.5t12.5 -38t11.5 -20q6 -13 18.5 -27t36 -25t60.5 -18.5t91 -7.5q59 0 100 7t68 17.5t43 22.5t26 23q10 10 21 26t20 44.5t15 71.5t6 108v589h153v-1011h-128l-13 146q-10 -15 -32 -43.5t-63 -56.5t-104 -48.5t-154 -20.5 q-66 0 -114.5 9.5t-83 23.5t-55.5 29.5t-32 26.5t-23.5 31t-23 55t-17.5 89.5t-7 134.5zM325 1135l178 337h144l179 -337h-145l-103 277l-108 -277h-145z" />
<glyph unicode="&#xfc;" horiz-adv-x="1157" d="M149 376v635h154v-608q0 -61 4 -100.5t10 -64.5t12.5 -38t11.5 -20q6 -13 18.5 -27t36 -25t60.5 -18.5t91 -7.5q59 0 100 7t68 17.5t43 22.5t26 23q10 10 21 26t20 44.5t15 71.5t6 108v589h153v-1011h-128l-13 146q-10 -15 -32 -43.5t-63 -56.5t-104 -48.5t-154 -20.5 q-66 0 -114.5 9.5t-83 23.5t-55.5 29.5t-32 26.5t-23.5 31t-23 55t-17.5 89.5t-7 134.5zM273 1341q0 49 19 74t73 25q30 0 48.5 -6.5t28.5 -19t13.5 -31t3.5 -42.5q0 -48 -18.5 -71.5t-75.5 -23.5q-51 0 -71.5 23.5t-20.5 71.5zM691 1341q0 49 19 74t73 25q30 0 48.5 -6.5 t28.5 -19t13.5 -31t3.5 -42.5q0 -48 -18.5 -71.5t-75.5 -23.5q-51 0 -71.5 23.5t-20.5 71.5z" />
<glyph unicode="&#xfd;" horiz-adv-x="1158" d="M150 376v635h154v-608q0 -61 4 -100.5t10 -64.5t12.5 -38t11.5 -20q6 -13 18.5 -27t36 -25t60.5 -18.5t91 -7.5q59 0 100 7t68 17.5t43 22.5t26 23q10 10 21 26t20 44.5t15 71.5t6 108v589h153v-949q0 -85 -11.5 -147t-28 -105t-35 -69.5t-32.5 -40.5q-15 -14 -41 -32 t-66.5 -33.5t-97 -26t-131.5 -10.5q-71 0 -124 8.5t-90.5 20t-60.5 23t-33 18.5q-10 6 -24 19.5t-27.5 35t-25 53t-15.5 74.5l87 47q20 -44 36 -69.5t28 -39.5q14 -17 26 -23q14 -12 43 -22q25 -8 67.5 -15t111.5 -7q52 0 92 7t69.5 17.5t48 23t27.5 24.5q6 8 15 22.5 t17.5 44t14.5 76.5t6 120v72q-12 -18 -34 -44t-61.5 -49.5t-99 -40.5t-145.5 -17q-66 0 -114.5 9.5t-83 23.5t-55.5 29.5t-32 26.5t-23.5 31t-23 55t-17.5 89.5t-7 134.5zM343 1212l239 378l173 -74l-318 -336z" />
<glyph unicode="&#xfe;" horiz-adv-x="1162" d="M158 -301v1742h154v-567q18 25 42.5 53t63 51t94 38t134.5 15q69 0 120.5 -11t87.5 -27t59 -33t36 -30q17 -17 34.5 -46.5t31.5 -79t23 -122t9 -176.5q0 -96 -7.5 -161.5t-18 -109t-22.5 -69.5t-22 -43q-13 -23 -38.5 -49t-65.5 -47.5t-96.5 -35.5t-131.5 -14 q-90 0 -149.5 19t-97 45t-57 53t-29.5 43v-438h-154zM311 512q0 -80 5.5 -138.5t13 -98.5t16.5 -63.5t17 -32.5q11 -15 28.5 -29t45.5 -25t69.5 -18t101.5 -7q57 0 96.5 7t65.5 18.5t41 25t23 25.5q9 12 19 32.5t18.5 57t14 92.5t5.5 140q0 87 -5.5 145.5t-14 96.5t-18 59.5 t-17.5 34.5t-23 26t-41 23.5t-65.5 17.5t-97.5 7q-60 0 -100.5 -7.5t-67.5 -18t-43 -24t-25 -25.5q-10 -13 -21 -33.5t-20 -57t-15 -92t-6 -138.5z" />
<glyph unicode="&#xff;" horiz-adv-x="1158" d="M150 376v635h154v-608q0 -61 4 -100.5t10 -64.5t12.5 -38t11.5 -20q6 -13 18.5 -27t36 -25t60.5 -18.5t91 -7.5q59 0 100 7t68 17.5t43 22.5t26 23q10 10 21 26t20 44.5t15 71.5t6 108v589h153v-949q0 -85 -11.5 -147t-28 -105t-35 -69.5t-32.5 -40.5q-15 -14 -41 -32 t-66.5 -33.5t-97 -26t-131.5 -10.5q-71 0 -124 8.5t-90.5 20t-60.5 23t-33 18.5q-10 6 -24 19.5t-27.5 35t-25 53t-15.5 74.5l87 47q20 -44 36 -69.5t28 -39.5q14 -17 26 -23q14 -12 43 -22q25 -8 67.5 -15t111.5 -7q52 0 92 7t69.5 17.5t48 23t27.5 24.5q6 8 15 22.5 t17.5 44t14.5 76.5t6 120v72q-12 -18 -34 -44t-61.5 -49.5t-99 -40.5t-145.5 -17q-66 0 -114.5 9.5t-83 23.5t-55.5 29.5t-32 26.5t-23.5 31t-23 55t-17.5 89.5t-7 134.5zM310 1341q0 49 19 74t73 25q30 0 48.5 -6.5t28.5 -19t13.5 -31t3.5 -42.5q0 -48 -18.5 -71.5 t-75.5 -23.5q-51 0 -71.5 23.5t-20.5 71.5zM728 1341q0 49 19 74t73 25q30 0 48.5 -6.5t28.5 -19t13.5 -31t3.5 -42.5q0 -48 -18.5 -71.5t-75.5 -23.5q-51 0 -71.5 23.5t-20.5 71.5z" />
<glyph unicode="&#x131;" horiz-adv-x="470" d="M158 0v1011h154v-1011h-154z" />
<glyph unicode="&#x152;" horiz-adv-x="2050" d="M121 720q0 132 15.5 229t38.5 165.5t50 112t50 69.5q24 27 64.5 57.5t100.5 57t143 44t193 17.5q47 -1 100 -5.5t99 -10.5q54 -7 106 -15h858l-24 -138h-667v-481h614v-136h-614v-545h669l24 -140h-854q-55 -12 -110 -21q-48 -8 -103.5 -14.5t-105.5 -6.5q-105 0 -184 17 t-136 41.5t-94.5 52t-59.5 47.5q-28 25 -58.5 69t-56 115t-42 173.5t-16.5 245.5zM301 724q0 -125 11 -212t28.5 -145.5t38 -93t38.5 -55.5q17 -18 47 -38t76.5 -36t111.5 -26.5t153 -10.5q39 0 86.5 4.5t89.5 10.5q48 7 98 16v1158q-50 7 -98 13q-42 5 -87.5 9.5t-79.5 4.5 q-88 0 -155 -10.5t-115 -26t-79.5 -35t-47.5 -37.5q-18 -21 -38.5 -56.5t-38 -92.5t-28.5 -140.5t-11 -200.5z" />
<glyph unicode="&#x153;" horiz-adv-x="1841" d="M109 499q0 97 10.5 167t26 119.5t33.5 80.5t34 50q15 18 44 39.5t72.5 40.5t103 31.5t136.5 12.5q79 0 138 -12t101 -29t67.5 -35.5t38.5 -30.5q21 -21 39 -48q14 22 28.5 37.5t27.5 26.5q14 12 37.5 28t60 30t87 23.5t119.5 9.5q75 0 127.5 -11t89 -26t58.5 -31.5 t35 -28.5q18 -16 38 -45t36 -72t26.5 -100.5t10.5 -131.5v-21q0 -16 -0.5 -34t-1 -35t-1.5 -24h-702q1 -79 8.5 -135.5t18.5 -95t24 -60.5t24 -32q23 -20 75.5 -38.5t139.5 -18.5q46 0 80 4.5t57 10.5t37.5 12.5t22.5 10.5q12 6 23.5 18.5t21.5 34t19.5 53t17.5 76.5 l124 -46q-7 -47 -17.5 -82t-22 -59.5t-23.5 -40.5t-22 -25q-14 -12 -38 -29t-63 -32t-94.5 -26t-130.5 -11q-78 0 -133 12t-92.5 28.5t-59.5 35t-34 31.5q-11 11 -20.5 24t-20.5 28q-10 -15 -21 -27.5t-22 -23.5q-14 -13 -39.5 -31.5t-66 -35.5t-97 -29t-131.5 -12 q-77 0 -136.5 12.5t-104 31.5t-73.5 40t-45 39t-34.5 47.5t-34.5 77.5t-26.5 117t-10.5 165zM270 505q0 -84 6 -140.5t15 -93.5t20 -58.5t21 -34.5t26.5 -26.5t44 -25t68.5 -18.5t100 -7q58 0 99 7.5t69 18.5t45 25t26 27q9 12 19 33t18.5 57t14 90.5t5.5 135.5 q0 88 -5.5 147t-14 97t-19 59.5t-19.5 34.5t-26 26.5t-45 24.5t-69 18.5t-98 7.5q-59 0 -100.5 -7.5t-69 -18.5t-44 -25t-25.5 -27q-10 -14 -21 -35t-20 -58t-15 -93.5t-6 -140.5zM1033 595h469l76 -6q-3 62 -9 106.5t-14.5 75.5t-17.5 49.5t-17 28.5q-9 10 -24.5 21.5 t-41 21.5t-62 17t-85.5 7q-43 0 -76 -5t-57.5 -13t-41 -17.5t-26.5 -17.5t-22 -26t-23 -49.5t-19 -78.5t-9 -114z" />
<glyph unicode="&#x178;" horiz-adv-x="1142" d="M-4 1441h186q17 -32 39.5 -73t48 -87t52 -94.5t52.5 -93.5q60 -106 125 -221l73 -132l72 132q64 115 125 221q25 45 52.5 93.5t53.5 94.5t49 87t40 73h188q-27 -49 -62.5 -111.5t-75.5 -130.5t-81.5 -139t-81.5 -137q-93 -156 -194 -321v-602h-174v599q-99 165 -191 322 q-39 67 -80.5 138t-80.5 139.5t-74 130.5t-61 112zM268 1771q0 49 19 74t73 25q30 0 48.5 -6.5t28.5 -19t13.5 -31t3.5 -42.5q0 -48 -18.5 -71.5t-75.5 -23.5q-51 0 -71.5 23.5t-20.5 71.5zM686 1771q0 49 19 74t73 25q30 0 48.5 -6.5t28.5 -19t13.5 -31t3.5 -42.5 q0 -48 -18.5 -71.5t-75.5 -23.5q-51 0 -71.5 23.5t-20.5 71.5z" />
<glyph unicode="&#x2c6;" horiz-adv-x="705" d="M76 1135l178 337h144l179 -337h-145l-103 277l-108 -277h-145z" />
<glyph unicode="&#x2da;" horiz-adv-x="701" d="M125 1316q0 35 12 63.5t34 49t52 31.5t65 11q34 0 63.5 -11.5t51 -32t33.5 -49.5t12 -64q0 -36 -12 -65t-34 -49.5t-51.5 -32t-64.5 -11.5t-64 11.5t-51 32.5t-34 50.5t-12 65.5zM204 1316q0 -38 20 -62t63 -24t63.5 24t20.5 60q0 37 -20.5 61t-63.5 24q-42 0 -62.5 -24 t-20.5 -59z" />
<glyph unicode="&#x2dc;" horiz-adv-x="1017" d="M167 1257q0 54 14 89.5t37.5 56.5t53 29.5t60.5 8.5q29 0 62.5 -13.5t64 -29t56 -29t37.5 -13.5q29 0 40 23t13 61h112q0 -53 -13.5 -88.5t-35 -57t-50 -30.5t-59.5 -9q-32 0 -61.5 10t-61.5 30q-38 23 -60.5 35.5t-41.5 12.5q-29 0 -41.5 -24t-12.5 -62h-113z" />
<glyph unicode="&#x2013;" horiz-adv-x="974" d="M123 575v109h729v-109h-729z" />
<glyph unicode="&#x2014;" horiz-adv-x="1160" d="M123 575v109h914v-109h-914z" />
<glyph unicode="&#x2018;" horiz-adv-x="440" d="M127 1183q0 52 12 94t29.5 73.5t38 53.5t37.5 35l50 -53q-8 -13 -19 -25.5t-21.5 -29.5t-17.5 -41t-8 -60h82v-197h-175z" />
<glyph unicode="&#x2019;" horiz-adv-x="414" d="M121 1243v197h175l8 -150q0 -52 -12 -94t-29.5 -73.5t-38 -53.5t-37.5 -35l-50 53q8 13 19 25.5t21.5 29.5t17.5 41t8 60h-82z" />
<glyph unicode="&#x201a;" horiz-adv-x="467" d="M138 -164q10 12 24.5 29t28 38t23 45t9.5 51h-79v196h180v-191q0 -46 -16.5 -84t-39.5 -67t-47.5 -48.5t-39.5 -29.5z" />
<glyph unicode="&#x201c;" horiz-adv-x="746" d="M126 1181q0 52 12 94.5t29.5 74.5t38 54.5t37.5 34.5l52 -52q-9 -13 -20 -26t-21 -30t-17.5 -41t-7.5 -59h82v-195h-177zM432 1184q0 50 12.5 91t30.5 72.5t39 54.5t38 37l50 -51q-7 -11 -17.5 -24t-20.5 -31t-17.5 -43t-8.5 -60h78v-194h-176z" />
<glyph unicode="&#x201d;" horiz-adv-x="723" d="M122 1246v194h176l8 -148q0 -50 -12.5 -91t-30.5 -72.5t-39 -54.5t-38 -37l-50 51q7 11 17.5 24t20.5 31t17.5 43t8.5 60h-78zM427 1245v195h177l8 -145q0 -53 -12 -95t-29.5 -74t-38 -54.5t-37.5 -34.5l-52 52q9 13 20 26t21 30t17.5 41t7.5 59h-82z" />
<glyph unicode="&#x201e;" horiz-adv-x="745" d="M138 -164q10 12 24.5 29t28 38t23 45t9.5 51h-79v196h180v-191q0 -46 -16.5 -84t-39.5 -67t-47.5 -48.5t-39.5 -29.5zM416 -164q10 12 24.5 29t28 38t23 45t9.5 51h-79v196h180v-191q0 -46 -16.5 -84t-39.5 -67t-47.5 -48.5t-39.5 -29.5z" />
<glyph unicode="&#x2022;" horiz-adv-x="855" d="M103 616q0 61 25.5 116.5t69 97.5t101.5 67t124 25q68 0 128 -25.5t104.5 -68.5t70.5 -100t26 -120q0 -65 -25.5 -121t-69.5 -97t-102 -64.5t-123 -23.5q-69 0 -129.5 25.5t-104.5 68.5t-69.5 100t-25.5 120z" />
<glyph unicode="&#x2026;" horiz-adv-x="1790" d="M141 0v221h211v-221h-211zM789 0v221h211v-221h-211zM1437 0v221h211v-221h-211z" />
<glyph unicode="&#x2039;" horiz-adv-x="642" d="M80 609v106l318 391l141 -68l-298 -376l298 -376l-141 -68z" />
<glyph unicode="&#x203a;" horiz-adv-x="642" d="M102 286l298 376l-298 376l141 68l318 -391v-106l-318 -391z" />
<glyph unicode="&#x2044;" horiz-adv-x="724" d="M4 1l611 1643l104 -17l-612 -1644z" />
<glyph unicode="&#x2074;" horiz-adv-x="837" d="M64 645l414 665l137 -15v-680h142v-99h-142v-216h-117v216h-423zM163 613h335v546z" />
<glyph unicode="&#x20ac;" horiz-adv-x="1425" d="M85 515v111h89q-2 18 -2 36v37v34q0 17 1 34h-88v109h96q10 86 28 153t39.5 117.5t44 85.5t41.5 57q22 27 62 59t97.5 59.5t133.5 46t171 18.5q90 0 159 -13.5t118.5 -32t79.5 -37.5t41 -29q12 -11 28.5 -28.5t33 -42.5t31.5 -58.5t25 -75.5l-136 -55q-20 69 -51.5 111 t-63.5 58q-7 3 -26.5 12t-52 18t-78 16t-105.5 7q-68 0 -120.5 -11.5t-91.5 -28.5t-65.5 -36.5t-41.5 -34.5q-17 -16 -35.5 -43.5t-35 -68.5t-30.5 -96t-21 -127h458v-109h-466v-53v-46q0 -22 2 -42h464v-111h-454q8 -61 20 -107.5t25.5 -80.5t27 -57t25.5 -36 q19 -24 51 -46.5t74.5 -39.5t95 -27.5t114.5 -10.5q63 0 112.5 7.5t86 18.5t60 23t35.5 21q6 4 18 15t26 29.5t28.5 46t25.5 65.5l130 -59q-13 -51 -31.5 -89t-38 -64.5t-38 -43t-31.5 -25.5q-11 -8 -40 -23.5t-76.5 -31t-114 -27.5t-152.5 -12q-95 0 -169 17t-129.5 41.5 t-92 51.5t-56.5 47q-55 53 -100 154t-65 243h-100z" />
<glyph unicode="&#x2122;" horiz-adv-x="1271" d="M131 1327v68h402v-68h-164v-553h-74v553h-164zM596 774v621h70l184 -504l180 504h72v-621h-76v397l-137 -387h-80l-137 387v-397h-76z" />
<glyph unicode="&#x2212;" horiz-adv-x="1060" d="M153 573v109h753v-109h-753z" />
<glyph unicode="&#xe000;" horiz-adv-x="1025" d="M0 1025h1025v-1025h-1025v1025z" />
<glyph unicode="&#xfb01;" horiz-adv-x="1113" d="M66 899v112h192v124q0 67 5 112.5t12.5 74.5t16 45t15.5 23q5 5 19 16t39.5 22.5t63 20.5t90.5 9q36 0 61.5 -5t42.5 -11q19 -7 31 -16q13 -10 26 -23q11 -12 22.5 -29.5t19.5 -42.5l-82 -70q-9 16 -18 27.5t-17 18.5q-9 8 -16 13q-7 3 -17 6q-8 2 -21 4t-30 2 q-32 0 -50.5 -5t-27.5 -11q-11 -7 -14 -15q-5 -3 -9 -22q-4 -17 -6.5 -53t-2.5 -104v-111h544v-1011h-154v899h-390v-899h-153v899h-192zM785 1271q0 49 19 74t73 25q30 0 48.5 -6.5t28.5 -19t13.5 -31t3.5 -42.5q0 -48 -18.5 -67t-75.5 -19q-51 0 -71.5 19t-20.5 67z" />
<glyph unicode="&#xfb02;" horiz-adv-x="1283" d="M66 899v112h192v124q0 73 6 119t14.5 74t18 41.5t16.5 20.5q5 5 18.5 16t37.5 22.5t60.5 20.5t89.5 9q36 0 61.5 -5t42.5 -11q19 -7 31 -16q13 -10 26 -23q11 -12 22.5 -29.5t19.5 -42.5l-82 -70q-9 16 -18 27.5t-17 18.5q-9 8 -16 13q-7 3 -17 6q-8 2 -21 4t-30 2 q-32 0 -50.5 -5t-27.5 -11q-11 -7 -14 -15q-5 -3 -9 -22q-4 -17 -6.5 -53t-2.5 -104v-111h219v-112h-219v-899h-153v899h-192zM964 0v1441h153v-1441h-153z" />
<glyph unicode="&#xfb03;" horiz-adv-x="1864" d="M1536 1271q0 49 19 74t73 25q30 0 48.5 -6.5t28.5 -19t13.5 -31t3.5 -42.5q0 -48 -18.5 -67t-75.5 -19q-51 0 -71.5 19t-20.5 67zM1552 0v1011h154v-1011h-154zM763 899v112h192v124q0 73 6 119t14.5 74t18 41.5t16.5 20.5q5 5 18.5 16t37.5 22.5t60.5 20.5t89.5 9 q36 0 61.5 -5t42.5 -11q19 -7 31 -16q13 -10 26 -23q11 -12 22.5 -29.5t19.5 -42.5l-82 -70q-9 16 -18 27.5t-17 18.5q-9 8 -16 13q-7 3 -17 6q-8 2 -21 4t-30 2q-32 0 -50.5 -5t-27.5 -11q-11 -7 -14 -15q-5 -3 -9 -22q-4 -17 -6.5 -53t-2.5 -104v-111h219v-112h-219v-899 h-153v899h-192zM66 899v112h192v124q0 73 6 119t14.5 74t18 41.5t16.5 20.5q5 5 18.5 16t37.5 22.5t60.5 20.5t89.5 9q36 0 61.5 -5t42.5 -11q19 -7 31 -16q13 -10 26 -23q11 -12 22.5 -29.5t19.5 -42.5l-82 -70q-9 16 -18 27.5t-17 18.5q-9 8 -16 13q-7 3 -17 6q-8 2 -21 4 t-30 2q-32 0 -50.5 -5t-27.5 -11q-11 -7 -14 -15q-5 -3 -9 -22q-4 -17 -6.5 -53t-2.5 -104v-111h219v-112h-219v-899h-153v899h-192z" />
<glyph unicode="&#xfb04;" horiz-adv-x="1878" d="M1559 0v1441h153v-1441h-153zM763 899v112h192v124q0 73 6 119t14.5 74t18 41.5t16.5 20.5q5 5 18.5 16t37.5 22.5t60.5 20.5t89.5 9q36 0 61.5 -5t42.5 -11q19 -7 31 -16q13 -10 26 -23q11 -12 22.5 -29.5t19.5 -42.5l-82 -70q-9 16 -18 27.5t-17 18.5q-9 8 -16 13 q-7 3 -17 6q-8 2 -21 4t-30 2q-32 0 -50.5 -5t-27.5 -11q-11 -7 -14 -15q-5 -3 -9 -22q-4 -17 -6.5 -53t-2.5 -104v-111h219v-112h-219v-899h-153v899h-192zM66 899v112h192v124q0 73 6 119t14.5 74t18 41.5t16.5 20.5q5 5 18.5 16t37.5 22.5t60.5 20.5t89.5 9q36 0 61.5 -5 t42.5 -11q19 -7 31 -16q13 -10 26 -23q11 -12 22.5 -29.5t19.5 -42.5l-82 -70q-9 16 -18 27.5t-17 18.5q-9 8 -16 13q-7 3 -17 6q-8 2 -21 4t-30 2q-32 0 -50.5 -5t-27.5 -11q-11 -7 -14 -15q-5 -3 -9 -22q-4 -17 -6.5 -53t-2.5 -104v-111h219v-112h-219v-899h-153v899h-192 z" />
</font>
</defs></svg> 